<svg xmlns="http://www.w3.org/2000/svg" viewBox="0 0 605.38 429.91">
  <title>Asset 3</title>
  <g id="Layer_2" data-name="Layer 2">
    <g id="Layer_1-2" data-name="Layer 1">
      <g>
        <path d="M176.46,268.35c1.48-.57,1.66,2,.4,5.68l-5.58,1-.56.1a2,2,0,0,1-.76-1c-.05-.31.41-.64,1-.75S175,268.93,176.46,268.35Zm-15.33-72.13c.05.31-.66.69-1.58.85s-1.76-.21-1.87-.83.61-1,1.58-.85S161.08,195.91,161.13,196.22ZM434.8,158.73a2.18,2.18,0,0,1-.18,2.33c-.51.72-4.19,1.88-8.19,2.57s-7.22,1.5-7.16,1.81-.82,1.24-1.94,2.06l-.56.1-.57.1a1.4,1.4,0,0,0-.79.42c-.12.18-1.31,2.24-1.62,2.29s-.09,1.31.48,2.79,1.87,6,2.18,6,.69.66.84,1.58a2.06,2.06,0,0,0,2.53,1.29l.39,2.23.19,1.12a4.6,4.6,0,0,0-.64,3,4.93,4.93,0,0,0,2.16,2.5.57.57,0,0,1,.66.46c.05.31.85.43,1.77.27a22,22,0,0,1,5.22.25c2,.29,6.6,3.46,6.91,3.4s.74.91.95,2.14-.07,2.57-.64,3-4.42,1.08-4.47.77-1.1-.39-2.33-.18a8.42,8.42,0,0,1-4.1-.44c-1-.46-7.62.68-7.82,1.35s-.42,2.38-.73,2.43-.63,1.14-.73,2.43.15,5.72-.15,5.77-.72.64-.92,1.31-.42,2.37-.73,2.43-.38,1.1-.17,2.33.13,2.28-.18,2.33-.6,1.4-.64,3L414,225l.39,2.23c.68,2.1,1.73,3.73,2.35,3.62a1.14,1.14,0,0,1,1.32.92c.11.62,1.33,1.7,2.71,2.41s5.78,2.52,4.07,3.61-2.69,5.93-3,6-.72.64-.92,1.31-1.24,2.77-1.19,3.08a34.71,34.71,0,0,0,3.46,3.43l.56-.1c.57-.1,1-.75,2.14-.94l.56-.1c1.8,1.27,3.78,2.22,4.4,2.12a1.13,1.13,0,0,1,1.31.92c.11.61,1,3.54.11,4s-6.07.85-7.46.14a23.91,23.91,0,0,0-6.07-1.83c-.61.1-2.47-1.65-4.12-3.89s-10.79-2.47-10.73-2.17-.66.69-1.58.85-1.59.79-1.48,1.4a3.64,3.64,0,0,1-1.29,2.52c-.82.78-3.07,6.2-1.15,10s7.54,7.33,8.15,7.22,1.16.06,1.21.36.6.47,1.21.36,1.17.06,1.22.37.64.73,1.3.92a2.7,2.7,0,0,1,1.5,2,4.94,4.94,0,0,0,2.16,2.5c.31-.05.9.36,1.31.92s.59,3.09-.08,2.89a7.87,7.87,0,0,1-2.62-1.85c-.05-.31-1.86-.25-4,.12s-4,.42-4,.12a.57.57,0,0,0-.65-.46c-.31.05-.82-1.41-1.13-3.26s-.83-3.31-1.14-3.25a4.48,4.48,0,0,1-2-1.38c-.05-.31-.64-.72-1.31-.93s-2.38-.42-2.43-.73-.6-.47-1.21-.36a1.13,1.13,0,0,1-1.3-.93c-.11-.62-1.82-.84-2.43-.73s-1.16-.06-1.21-.36-1.56,0-3.35.58-6.49,3.89-6.59,5.17a6.23,6.23,0,0,0,1.89,4.27c1.13,1.07,2.12,6.8,1.25,7.26s-5.86.55-7-.52-8.07-.39-8.57.33-2.63,3.27-2.22,3.83,1.2,2.09,1.5,2,.65.41.75,1,.45,1.07.75,1,.89.36,1.3.92l.1.56.1.56c-.81.78-1.44,1.66-1.38,2a.57.57,0,0,0,.66.46c.31-.05.69.66.85,1.58s.54,1.63.85,1.58.69.66.85,1.58.54,1.63.85,1.58,1.28,1.07,2.16,2.5,3.54,5.72,3.85,5.66.65.4.75,1,.44,1.07.75,1a20.24,20.24,0,0,1,4.29,1.56c2.06.91,4.38,11.38,3.05,11s-4.92-1.85-5.24-3.7-.83-3.31-1.14-3.26-.69-.66-.85-1.58a4,4,0,0,0-.95-2.14c-.36-.25-1.86-.77-2-1.38s-.44-1.07-.75-1-.64-.41-.75-1-.45-1.08-.75-1-.64-.41-.75-1-.45-1.08-.76-1a4.37,4.37,0,0,1-2.06-1.94c-.11-.62-.45-1.07-.75-1a3.9,3.9,0,0,1-1.87-.83,14.81,14.81,0,0,0-3.18-1.75.57.57,0,0,1-.66-.46c-.05-.31-.6-.47-1.21-.37s-1.16-.06-1.21-.37-.6-.47-1.21-.37-1,1.06-1,.75a6.71,6.71,0,0,0-2.06-1.95c-1.08-.76-6-.42-6.9,0s-2.43,5.59-3,5.7-1.07.44-1,.75-3.8,1.09-7.45.14-8-3.16-8.13-3.77a2.13,2.13,0,0,0-1.4-1.48,7.88,7.88,0,0,1-2.62-1.85c-.05-.3-2.61-.12-5.68.41s-5.54,1.21-5.49,1.52-3.83,3.31-8.62,6.67-12.5,10.21-13.73,10.43-2.19.63-2.13.94-.41.65-1,.75-1.08.44-1,.75a2,2,0,0,1-.36,1.21,10.57,10.57,0,0,1-3.58.91,24.14,24.14,0,0,0-.87-5c-.6-2.59-3.57-5.68-3.62-6s-.6-.47-1.21-.37-1,1.06-1,.75a.57.57,0,0,0-.66-.47c-.31.05-.67-3.51-.79-7.92l-7.83,1.35c-11.72,2-9.32-17.38-25-14.67l-1.67.29c-.35,1.65-1.13,3.07-1.75,3.18s-1.66,1.58-2.31,3.28-3,5.95-2.95,6.26-.4.64-1,.75-1.07.44-1,.75-.36.9-.93,1.31-2.4-.57-2.72-2.41-.37-3.65-.12-4,1.44-3.13,1.75-3.18.47-.6.37-1.21a3.64,3.64,0,0,1,1.29-2.52c.82-.77,2.23-3.72,2-4.95s-.93-2.4-1.6-2.6-2.61-1.79-2.71-2.4-.45-1.08-.75-1a4.4,4.4,0,0,1-2.07-1.95c-.11-.61-.44-1.07-.75-1a4.5,4.5,0,0,1-2-1.39c-.05-.31-.85-.43-1.77-.27s-1.59.79-1.48,1.41-1.07,1.34-2.6,1.6-2.75.73-2.7,1-.61.94-1.48,1.41-4.15.78-4.57.21-.9-6.38-.38-8.85.53-8.43.84-8.48.43-.85.27-1.77,0-1.72.27-1.77-1-2.42-2.92-5.25-11.82-3.45-11.77-3.15-.87,1-2,1.5-4.33,1.58-4.28,1.89-.91.74-2.14.95a11.15,11.15,0,0,0-4.68,2.82c-1.35,1.34-6.68,4.64-6.74,4.33a.57.57,0,0,1,.46-.65,64.72,64.72,0,0,0,6.39-6.28c3.21-3.4,6.91-6.63,6.86-6.93s2.07-1.45,4.73-2.55,2.74-11.09,2.08-11.29-2.67-.63-3.08-1.2a4.43,4.43,0,0,0-2.53-1.29c-1-.15-3.69-6.2-3.49-6.87a7.08,7.08,0,0,1,3.53-2.92c1.23-.21-.1-7.92-1.54-8.93s-2.55-8.91-1.28-10.71-.45-10.22-2.4-10.51-8.44-2.26-8.5-2.56-1.15-.64-2.43-.73l-1.11.19c-2.79.48-5.38,2.08-7.62,2.47l-2.24.39c-.88-1.43.42-2.94,2.87-3.37s10.12-1.38,10-2.3,2.22-2.11,5.3-2.64,5.07-5.47,5.37-5.52.43-.86.27-1.77,1.55-3,3.8-4.68l-.58-3.35c-.48-2.8-1.52-5.49-1.81-7.16l-.77-4.47c5.27-.59,9.54-1.33,9.49-1.64a5.35,5.35,0,0,1,.27-1.77c.21-.67-1.22-6.58-3.58-7.44s-10.17-2.21-10.27-2.83,1.82-1.46,4.28-1.89,5.48-.17,6.72.56,7-.26,8.1-1.4.73-7.6.42-7.55-.69-.66-.85-1.58a5.87,5.87,0,0,1,1.1-3.64c.77-1.08,3.15-2.27,5.3-2.64s3.86-.93,3.81-1.23a3.89,3.89,0,0,1,.82-1.87c.51-.72,2.88-3.32,2.77-3.93s.06-1.16.36-1.21.38-1.1.17-2.33a5.54,5.54,0,0,0-1-2.7c-.36-.25-2.6-3.58-2.91-3.53a.57.57,0,0,1-.66-.46c-.05-.31-.64-.72-1.31-.92s-1.38-1.37-1.59-2.6a3.73,3.73,0,0,0-2.21-2.78c-1-.3-2.56-3.3-2.86-3.25s-.84-.76-1.18-1.81-6.6-6.57-6.71-7.18a3.92,3.92,0,0,0-1.51-2c-.72-.51-3.82-2.15-3.92-2.77s-.45-1.07-.75-1-1.76-.21-1.87-.83a2.78,2.78,0,0,0-.85-1.58,2.77,2.77,0,0,1-.85-1.58c-.11-.61-.44-1.07-.75-1s-.89-.36-1.32-.92,1,.12,3.37,2.87,8.87,4.73,9,5.35a3.94,3.94,0,0,0,1.51,2c.72.5,2.36,1.77,3.66,2.82s7.18,10.27,7.79,10.16a1.14,1.14,0,0,1,1.31.92,15.94,15.94,0,0,0,1.79,3.72c.88,1.43,13.24-.45,15.18-2s7.51-6.44,6.93-9.82-1.9-6.52-2.93-7-2.89-5.26-3.2-5.2-.48-1-.39-2.23,0-4.61.35-4.66.65.41.76,1a8.41,8.41,0,0,0,2.25,3.06c1.13,1.07,4.12,7.23,4.33,8.46s.64,2.19.94,2.14,1.19.57,2,1.39,3.22,2.32,3.84,2.22,1.16.05,1.21.36,1,1.55,2,1.39,1.63-.54,1.58-.85.66-.69,1.58-.85,1.63-.54,1.58-.85.36-.9.92-1.31,2.1-1.2,2-1.51a.57.57,0,0,1,.46-.65c.31-.05.8-1.69,1.1-3.64s2.21-5,3.14-5.14a4.91,4.91,0,0,0,2.5-2.16c-.05-.31.66-.69,1.58-.85s2.34-1.7,3.15-3.42,6.65-3.9,6.83-3.77.31.11.28,0a8,8,0,0,1,.53,3.07l.19,1.12.39,2.23c1.34,2.3,4.2,3.88,6.35,3.51s4.12-1,4.38-1.33,1-1.9,1.95-2.06,1.63-.54,1.58-.85a4.89,4.89,0,0,1,2.5-2.16c.92-.16,1.63-.54,1.58-.85a3.91,3.91,0,0,1,.83-1.87c.51-.72,5.64-1.46,7.55.43s8,6.09,10.2,5.71,4.16.06,4.48,1,5.68,1.26,5.79,1.88.95,1,1.87.83,2.92-3.61,4.43-7.67,3.76-7.55,5-7.76A3.06,3.06,0,0,1,338.94,70c.47.87.44,5.24-.52,7s-.35,8.31.42,9.13,6.53,1.49,7.09,1.08,3-2.5,3-2.81a6.66,6.66,0,0,1,1.29-2.52c.76-1.08,5.12-1.84,5.59-1s.59,6.11-.42,7.55-.79,6.54-.19,7.22,2.9,1.77,2.95,2.08.85.43,1.77.27,1.72,0,1.77.27,3,1.09,6.62,1.73,6.62,1.68,6.72,2.29.45,1.08.76,1,1,.87,1.5,2,6.67,2,6.62,1.73,1.41-.82,3.26-1.14,3.31-.83,3.26-1.14.91-.73,2.14-.95,2.28-.14,2.34.17,1.1.39,2.33.17a3.44,3.44,0,0,0,2.59-1.6c.2-.67,1.87-1.47,3.72-1.79s3.39-.33,3.45,0-.41.65-1,.75-3,.64-5.26,1.19-6.37,7.72-7,7.83-1.69,1.33-2.4,2.71-2.14,4.34-2,5a23,23,0,0,0,1.89,4.28c.93,1.74,8.87,4.74,9,5.35s3,.37,6.52-.55,11.15,4.4,10.84,4.46-3.28.83-6.6,1.71-4.56,11.72-4.87,11.78,1.21,2.89,3.39,6.31,7.92,7.58,10.94,6.74S434.39,158.17,434.8,158.73ZM143.22,84.82c-.17-1,.65-1.16,1.83-.32s6.26,8.38,5.25,8.55a1.87,1.87,0,0,1-2.15-1.53C148,90.52,143.39,85.83,143.22,84.82Zm20.06,13.33a3.64,3.64,0,0,1-1.36,5c-1.73,1-4.77-1.07-6.75-4.55S162.29,96.41,163.28,98.15Zm-.47,5.81h0c.5-.09,2.25-2.29,4.26-2.64a3.74,3.74,0,0,1,4.3,3c.35,2-.67,3.48-2.27,3.23s-2.5-.52-2-.61S163.31,103.88,162.81,104Zm22.25,41c1.08.77,1.46,1.48.85,1.58a6,6,0,0,1-2.33-.17,7.31,7.31,0,0,1-2.52-1.29C182,143.72,184,144.16,185.05,144.92Zm39.57,182.42c.2-.67.66-1,1-.75s1.91,2.54,1.6,2.6a.57.57,0,0,0-.47.66c.05.31-.66.69-1.58.85s-1.72,0-1.77-.27S224.42,328,224.62,327.34Zm5.09-7.2a.57.57,0,0,1-.47.65c-.31.05-.65-.4-.75-1S229.65,319.83,229.71,320.13Zm.42-7.55c.2-.67.61-1.25.92-1.31s.48,1,.39,2.23S229.92,313.25,230.12,312.58Zm2.51-2.16a.57.57,0,0,1-.46.66c-.31.05-.65-.41-.76-1S232.58,310.12,232.63,310.42Zm30.67,17.71a.57.57,0,0,1,.46-.66c.31-.05.78,1.16,1,2.7s.23,2.84-.08,2.89a.57.57,0,0,1-.66-.46L264,332c-1.31-.93-1.35-1.18-1.4-1.49S263.35,328.44,263.3,328.13Zm.4-11c-.21-1.23-.14-2.28.17-2.33s.73.91.94,2.14.14,2.28-.17,2.33S263.91,318.36,263.7,317.14Zm1.37-5.42a.57.57,0,0,1-.46.66c-.31.05-.65-.41-.76-1S265,311.42,265.07,311.72Zm-34.85-235a39,39,0,0,0-2.74-5.85c-1.4-2.6-2.74-6.72-.68-3.91s4.47,10.74,4.16,10.79S230.33,77.33,230.22,76.71Zm57.35,258.74c.78.81,1.16,1.52.85,1.58l-.56.1c-2,1.51-2.4-.5-2.82-3S286.8,334.63,287.57,335.45Zm5.68-260.13c0,.15-.1.88-.41.94s-.35-.2-.1-.56S293.23,75.17,293.25,75.32Zm.06-52.94c-1.31.23-3.74-4.3-5.41-10.07s-2-11.19-.85-12.07,5,.66,5.56,3.92,1,13.28,2.26,13.06,2.64,1.19,3,3.15S294.62,22.16,293.32,22.38Zm3.16,32.47c.34,2,.08,3.65-.57,3.76s-1.46-1.4-1.8-3.35-.08-3.65.57-3.77S296.14,52.89,296.47,54.85Zm-1.3-21.78c-.56-3.26-.49-6,.16-6.14s1.9.77,2.77,2l.41,2.38.82,4.74C296.75,40.5,295.74,36.34,295.17,33.07Zm69,273a.57.57,0,0,1-.47.66c-.31.05-.65-.41-.75-1S364.14,305.8,364.19,306.11Zm2.35,3.62c-.31.05-.64-.41-.75-1S366.84,309.67,366.54,309.73Zm.93.42c-.16,0-.08,1.22-.19.6s0-1,.14-.89S367.63,310.12,367.47,310.14Zm1.37,2.92c.08.46-.11.88-.42.94s-.65-.41-.76-1S368.76,312.61,368.84,313.07Zm1.09,3c-.52-1.18,0-1.26,1.12-.19s2.19,4.23,1.88,4.28a.57.57,0,0,1-.66-.46C372.22,319.36,370.45,317.22,369.93,316Zm5,5.47a.57.57,0,0,1-.46.66c-.31.05-.64-.4-.75-1S374.85,321.2,374.9,321.51Zm1.4,1.49a1.14,1.14,0,0,0,1.31.92c.62-.11,1.25.56,1.41,1.48a1.19,1.19,0,0,1-1.48,1.4c-1-.15-2.29-4.78-2-4.83S376.2,322.38,376.31,323Z" style="fill: #672b80;opacity: 0.8"/>
        <path d="M502.38,65.33a5.6,5.6,0,0,0,1.15-2,2.17,2.17,0,0,1,.77-1.22,10.83,10.83,0,0,0,1.56-1.49c0-.14.65-.28,1.46-.29a3.59,3.59,0,0,1,2.42,1c.52.57.93,5.56.79,5.57s-.26.36-.25.81a1.41,1.41,0,0,1-.38,1.07c-.21.15-.92.79-.91,1.08s-.11.53-.26.54-.26.3-.25.67a.85.85,0,0,1-.38.8,1.5,1.5,0,0,0-.64.95,5.58,5.58,0,0,1-1.55,2c-.86.82-3.67,2.87-4.33,2.89s-1.94-1-2.84-2.34l0-1.6v-.53c.14-.44.37-.8.51-.8s.26-.42.25-.94.16-.93.38-.94.39-.25.38-.54.11-.53.25-.54S501.74,66.15,502.38,65.33ZM386,79.92a4.62,4.62,0,0,1-2.24.58c-.15-.14-1.35-.89-1.35-1s-.31-.44-.68-.65a3.63,3.63,0,0,1-1.22-1.44c0-.29-.13-.52-.28-.52s-.28-.71-.29-1.59-.21-1.59-.44-1.59-.42-.83-.44-1.85,3.15-3.51,4.19-2.88,4.29,1.94,4.3,2.3.68,1,1.49,1.43S387.06,79.46,386,79.92Zm126.38-8a1.73,1.73,0,0,1,.9-1.62c.58-.3,3.72-.07,3.73.59A3.47,3.47,0,0,1,516.1,73C515.6,73.54,512.44,72.48,512.36,71.9ZM410.74,82c-.8,0-1.46-.09-1.46-.24s-.25-.37-.54-.51-1.34-.42-1.35-.64-.42-.39-.94-.38-.93-.1-.93-.25a.5.5,0,0,0-.28-.39c-.14-.07-.81-.68-.82-1a1.11,1.11,0,0,0-.69-.92,1.43,1.43,0,0,1-.81-.78,9,9,0,0,1,.57-4.53l1.07,0,1.86,0a21.88,21.88,0,0,0,3,2.06c.14,0,.27.23.27.53s.19.52.41.52.59.53.82,1.18a14.46,14.46,0,0,0,1,2.51c.14,0,.27.23.28.52a.48.48,0,0,0,.41.52c.22,0,.28.29.14.66A2.86,2.86,0,0,1,410.74,82Zm-45.54,2.83c.15,0,.21.23.15.53s-.79,1.35-1.3,1.36a1.85,1.85,0,0,1-1.34-.5c-.23-.29-.49-2.71-.2-2.78s2,0,2.14.48S365.06,84.88,365.21,84.88Zm82.39,4.76a4.15,4.15,0,0,0-1.22-1.17,4.54,4.54,0,0,1-.3-2.12,5.19,5.19,0,0,1,.47-2.67c.29-.3,3.88.16,4.41,1.1S453.28,88,453.3,89s-.26,1.85-.62,2S448.12,90.28,447.6,89.64ZM499.81,88A6.14,6.14,0,0,1,501,85.7c.64-.89,3-3.25,3.66-3.27a2.86,2.86,0,0,1,1.74.49,10.36,10.36,0,0,1,.09,4.25,19.26,19.26,0,0,1-2.06,3,7.72,7.72,0,0,0-1.42,2c-.63,1.11-4.19,2-4.35,1.68a5.78,5.78,0,0,1,0-2.26c.15,0,.26-.42.25-.94s.1-.93.24-.94.26-.25.25-.54.11-.53.25-.54S499.82,88.35,499.81,88Zm-1-2.77c.22-.15.4.15.41.66s-.22.94-.51.94S498.6,85.37,498.82,85.22ZM326,99c-.22,0-.4.13-.39.27s-.53.27-1.19.29a6,6,0,0,1-2.27-.48c-.59-.27-1.19-4.46-.9-4.77s3.42-.45,3.73.06,1.25,1.73,1.11,2.1-.33,1.2-.11,1.2S326.25,99,326,99Zm57.24-2.55c0,1.31-.42,2.64-1,2.94s-4.08.35-4.53-.3a8.75,8.75,0,0,1-.65-5.43l3.46-.07,1.07,0A3.15,3.15,0,0,1,383.27,96.46Zm120.11-2.84,1.6,0a8.86,8.86,0,0,1,1.69,4.48,5.6,5.6,0,0,1-.21,2.4,6,6,0,0,0-1.29,1.76c-.57,1-4.53,1-4.92,0s.14-7,1.28-8.54ZM396.26,318.46l-1.33,0a49.45,49.45,0,0,0-5.54-4.14c-.21,0-.58-.34-.81-.78a16.1,16.1,0,0,1-1.24-2.1c0-.29-.19-.53-.41-.52s-.4-.29-.41-.65-.14-.66-.28-.66-.28-.35-.28-.79a5,5,0,0,0-1.78-2.23c-1-.78-1.67-5.81-1.47-6.61s5.42-1.46,5.42-1.32.66.25,1.47.23,1.45-.39,1.44-.83a3.23,3.23,0,0,0-.83-1.58c-.15,0-.28-.29-.28-.66s-.13-.66-.28-.66a9.77,9.77,0,0,1,.07-3.19c.18-1.76.29-6.56,0-6.78s-1.35-.76-1.35-.9-.37-.26-.81-.25-.8-.16-.8-.39a1.08,1.08,0,0,0-.28-.66.68.68,0,0,0-.54-.25h-.4a9.84,9.84,0,0,0-.94-.5,4.58,4.58,0,0,1-.31-2.13c0-1.17-.22-2.12-.45-2.12a8.17,8.17,0,0,1-1.88-.62,21.89,21.89,0,0,1-3.36-1.92c0-.15-.24-.26-.54-.26a1.34,1.34,0,0,1-.95-.64,3.69,3.69,0,0,0-1.48-1.17,2.63,2.63,0,0,1-1.35-1,7,7,0,0,0-2.3-1.81,4.56,4.56,0,0,1-2-1.42c-.74-.79-3.75-2.29-4.69-1.76s-2.49,3.38-2.85,3.39a2.37,2.37,0,0,0-1.19.42,2.61,2.61,0,0,0-.5,1.61,8.29,8.29,0,0,1-1.92,3.23c-1.07,1.27-2.82,6.85-3,6.85a.92.92,0,0,0-.66.41c-.14.22-.53.35-.53.27s-.06-.07-.13,0-.65.59-.65.81-.3.41-.66.41a.87.87,0,0,0-.79.42,1.55,1.55,0,0,1-1.05.68c-.37,0-.66.14-.66.29s-.53.28-1.19.29A15.63,15.63,0,0,1,345,285L345,281.8l0-.8a22.41,22.41,0,0,0,.2-3.06c0-.8.26-1.58.63-1.74s.64-1.36.61-2.67a4.93,4.93,0,0,0-.87-3c-.44-.36-1.63-1.59-1.64-2.1a4.62,4.62,0,0,0-.71-2,10.39,10.39,0,0,1-.48-3.71c.15,0,.26-.24.25-.54a26.39,26.39,0,0,1,3.09-4.59l5.58-.12h.53c.59.13,1.07.36,1.08.51s.24.26.54.25a.48.48,0,0,1,.54.39c0,.22.43.39.94.38a2,2,0,0,1,1.49,1.29l1.33,0,2.13,0c1.43-1.2,3-2.13,3.54-2.07s1.44-1.23,1.42-1.89a50.62,50.62,0,0,0-3.09-8l-.11-5,0-1.59a7.82,7.82,0,0,1,.74-2.67c.15,0,.14-.18,0-.4s-.16-.66,0-.66A7.85,7.85,0,0,0,363,235c0-1.53.16-5.72,0-5.72s-.22-.59-.16-1.32.15-3-.07-3.06a1.92,1.92,0,0,1-.7-1.32c0-.51-.2-.93-.42-.92a16.52,16.52,0,0,1-3.11-2.33,28.32,28.32,0,0,1-4.66-6.68c0-.51-.2-1-.42-1.06a5.05,5.05,0,0,1-.72-2.78A6,6,0,0,1,354,206.1c.71-.75,5.08-1.61,5.83-1.19s3.06.82,3.2.6a4.57,4.57,0,0,0,0-2,8.32,8.32,0,0,1-.06-2.93c.11-1.61.31-6.12.53-6.12a.48.48,0,0,0,.39-.54c0-.29.11-.53.26-.54s.25-.54.24-1.2.1-1.2.24-1.2.38-.67.5-1.48.39-2.8.61-2.8.43-1.33.47-2.93a50.19,50.19,0,0,1,.54-6.13c.14,0,.26-.25.25-.54s.11-.53.25-.54.25-.54.24-1.2.16-1.2.38-1.2.38-.84.35-1.87a4.23,4.23,0,0,1,1.27-3l0-.8,0-1.6a12.75,12.75,0,0,1-1.44-5.15c0-1.54-.24-2.79-.46-2.78s-.42-.53-.43-1.19-.14-1.19-.29-1.19-.27-.35-.28-.79-.14-.8-.28-.79-.4-.47-.56-1.06l0-.79,0-2.13c.68-2.21,2.63-3.44,4.33-2.75s3.84,5.77,4.64,5.75a4.22,4.22,0,0,0,2.38-.85c.5-.45,1.7-2.69,2.07-2.7a.66.66,0,0,0,.65-.68.61.61,0,0,1,.52-.68,3.08,3.08,0,0,0,1.44-1,15.29,15.29,0,0,0,2.2-3.24,1.49,1.49,0,0,1,.51-1.07c.29-.23,1-1,1-1.35a7.92,7.92,0,0,1,1.14-2.55,12,12,0,0,0,.83-4.54c-.15,0-.28-.42-.29-.93a14.33,14.33,0,0,0-1.41-3.69c-.76-1.52-1.49-6.22-1.19-6.22s.7-.44.91-1S387,121,388,121.09a12,12,0,0,1,3.48,1.25c0,.14.42.25.94.25s1,.16,1.07.37.72.92,1.09.91.66.11.67.25.25.26.54.26.54.11.54.25.25.38.54.52a8.68,8.68,0,0,0,2.4.08c.29-.08,3.37-2.86,3.66-2.87a1.06,1.06,0,0,0,.79-.42,2.09,2.09,0,0,1,1.45-.7c.66,0,1.19-.2,1.19-.42s.29-.4.65-.41.66-.14.66-.28.41-.28.93-.29.93-.14.92-.29.59-.4,1.32-.56,2.92-.51,2.91-.73.11-.4.26-.41.26-.36.25-.8-.14-.8-.28-.79-.27-.29-.28-.66a6,6,0,0,0-1-2.1,11.59,11.59,0,0,1-1.27-3.29,33.15,33.15,0,0,0,2.56-4.84l4.25-.09,1.6,0c1.13,4.95,2.59,8.86,3.24,8.7s2.51-.5,2.51-.72,2.21-.51,4.91-.64,10-.49,10-.35.61.37,1.34.51a15.43,15.43,0,0,1,2.94.73c0,.15.54.25,1.2.24a15.58,15.58,0,0,1,3.61.72h.8c1.33,0,2.93.46,2.84-3.52-.08-3.72-.7-8.23-.78-11.69l0-1.07c1.15-.76,2.1-1.25,2.1-1.11s.33,1.52.73,3,.92,6.23,1.07,6.23.28.77.3,1.72a3.4,3.4,0,0,0,.58,2.11,2.33,2.33,0,0,1,.56,1.59c0,.66,0,1.13,0,1.06a5,5,0,0,1,.15.8c.09.51,2,.89,2.41.88a2.88,2.88,0,0,1,1.47.63,17.32,17.32,0,0,1,2.43,1.81,1.11,1.11,0,0,0,.95.64.87.87,0,0,1,.81.38,1.91,1.91,0,0,0,1.34.63c.51,0,.93.1.94.25s.24.26.54.26.53.17.54.38.31.39.67.38a7.27,7.27,0,0,1,2.56,1.41c1,.78,5.88,1.22,5.88,1.07s.23-.27.52-.28.53-.19.52-.41.41-.41.93-.42.93-.14.92-.28.29-.27.66-.28.66-.13.66-.28a13.65,13.65,0,0,1,2.34-2.18c1.29-1.05,4.28-4.35,4.43-4.35s.26-.25.25-.54.11-.54.25-.54.2-.48.11-1.06-.32-1.85-.17-1.86.26-.42.24-.94a1.69,1.69,0,0,1,.64-1.35A3.61,3.61,0,0,0,492,106.1a2.11,2.11,0,0,1,.77-1.21,11.35,11.35,0,0,0,1.56-1.49c0-.15.41-.27.93-.28a3.18,3.18,0,0,1,1.74.63c.45.35.75,3.57.61,3.57s-.25.78-.23,1.74a8.84,8.84,0,0,1-.72,3.33l-1.06,0h-.27a1.14,1.14,0,0,0-.8-.12,1.67,1.67,0,0,0-.52.94,1.06,1.06,0,0,1-.38.81,3,3,0,0,0-.89,1.74c0,.66-.09,1.2-.24,1.2a26.26,26.26,0,0,0-3.14,2.59c-1.58,1.42-2.69,9.5-2.32,9.49s1.54,1.83,1.9,1.82a8,8,0,0,1,2.71,2.2c1.12,1.22,4.09,5.36,4.23,5.36s.27.23.28.52a1.35,1.35,0,0,0,.69.92,3.62,3.62,0,0,1,1.23,1.83,11.36,11.36,0,0,0,.45,2.39c.24.8,3.38,2.63,3.38,2.85a.66.66,0,0,0,.54.52c.29.07,1.07.61,1.08.91a5.91,5.91,0,0,0,1.1,2c.6.79,3.38,2.72,4.85,2.69l2.66-.06a1.24,1.24,0,0,1,.42,1.32,4.2,4.2,0,0,1-.63,1.61c-.15,0-.26.54-.24,1.2a2.17,2.17,0,0,1-.37,1.47,4.69,4.69,0,0,0-.6,2.94c.17,1.31,2.23,5,2.26,5.93s.15,1.72.3,1.72a4.5,4.5,0,0,1,.31,2.12c0,1.17.23,2.12.44,2.11s.43,1.49.47,3.31a10.59,10.59,0,0,0,.34,3.32c.14,0,.28.77.3,1.72s.15,1.73.3,1.72a5.57,5.57,0,0,1,.18,2.39c0,1.32,2.6,3.61,2.6,3.53s1.31-1.06,1.3-1.49a4.08,4.08,0,0,1,1-2c.57-.67,5.06-1.07,5.43-.78s1,3.43,1.27,3.42.48.47.42,1.06-.77,2-1.29,1.89-2-.31-2-.09-.29.41-.66.42-.66.13-.66.28-.35.27-.79.28-.79.14-.79.29-.3.27-.66.28-.66.13-.66.28a25.28,25.28,0,0,1-1,2.81c-.56,1.41-1.34,5.48-1.48,5.48s-.26.24-.25.54a.48.48,0,0,1-.39.54c-.22,0-.39.43-.38.94a1.64,1.64,0,0,1-.38,1.21,1.75,1.75,0,0,0-.63,1.21,1.64,1.64,0,0,1-.38,1.2c-.21.15-.92.58-.91.95s-.11.67-.25.67a12.27,12.27,0,0,0-.19,3.59,12.49,12.49,0,0,1-.19,3.59c-.15,0-.25.54-.24,1.2s-.1,1.2-.24,1.2-.26.24-.25.53a.49.49,0,0,1-.39.54c-.22,0-.39.42-.38.93s-.1.93-.25.94-.25.42-.25.94-.1.93-.24.94-.38.25-.52.54.42,1.5,1.22,1a23.09,23.09,0,0,1,4.08-1.69,1.43,1.43,0,0,0,1.05-.42c.14-.22.87-.95,1.31-1a1.45,1.45,0,0,0,1.06-.42,27.51,27.51,0,0,1,4.72-2.63c2.32-1.07,6.23-4.8,6.82-4.66a3.85,3.85,0,0,0,1.86,0c0-.15.82-.4,1.85-.57s1.85-.43,1.85-.57.23-.39.52-.55h.26l1.06,0c.9.71,1.62,1.18,1.62,1a5.73,5.73,0,0,1,.37-1.2c.21-.52,2.89-1.23,3-.87a16.27,16.27,0,0,1,.89,4.37l-2.39.05h-.26c-.88-.13-1.61-.53-1.61-.89s-.6-.17-1.32.43-3.57,2.15-4.74,2.09-2.61,2.33-2.58,3.65-.13,2.39-.35,2.4-.41-.59-.43-1.32-1.76-1.43-3.21-.6-6.33,2.43-6.32,2.79a.61.61,0,0,1-.52.68,2.12,2.12,0,0,0-1.18.82,2.1,2.1,0,0,1-1.18.82,9.37,9.37,0,0,0-2.24.85c-.94.46-3.28,3.53-3.65,3.54a1.82,1.82,0,0,0-1.18.69,1.79,1.79,0,0,1-1.18.69c-.37,0-.66.14-.66.28a42.79,42.79,0,0,1-4.3,3.81c-2.38,2-6.59,12.07-7.28,14s-4.66,6-4.65,6.48-.1.8-.25.8-.26.3-.25.67-.11.67-.25.67-.25.42-.24.93-.16.93-.38.94-.74.67-1.16,1.49-.2,5.64.4,6.5,2.17,3.15,2.46,3.14.53.17.54.39.73.38,1.61.36a1.67,1.67,0,0,1,1.76,1.16c.08.66-.26,2.68-1.13,3.21s-5.1.74-5.18.38-.54-1.19-.69-1.18-.27-.41-.28-.93a.72.72,0,0,0-.81-.78,4,4,0,0,0-1.58,1c0,.14-.41.27-.92.28s-.93.14-.92.28-.9.17-2,0-4.06.3-4.63.9-2.1,2.39-1.79,3v.8c-.28.74-.38,1.34-.24,1.34a13,13,0,0,1,2.29,1.81c1.12,1,4.36,5.22,4.51,5.22s.28.53.29,1.19-.15,1.26-.37,1.34a2.4,2.4,0,0,0-.9,1.62c0,.65-.09,1.19-.24,1.2a6.36,6.36,0,0,0-1.43,1.63c-.64.89-3,3.37-3,3.52a10,10,0,0,1-2.63,1.38l-1.6,0-2.12,0a30.33,30.33,0,0,0-3.5-2c-.14,0-.28-.42-.29-.93s0-1.89.07-3.06-4-2.51-4.44-2.43a8,8,0,0,0-2.63,1.65,1.14,1.14,0,0,1-1.18.56,11.87,11.87,0,0,1-1.21-.37.27.27,0,0,0-.26.27c0,.14-.66.28-1.46.29s-1.46.15-1.46.3a4.61,4.61,0,0,1-2.12.31c-1.17,0-5.52-2.28-9.68-5.11l-2.39.05-2.39.05c-3.17,2.41-5.87,4.38-6,4.38s-.19.6-.1,1.33-2.46,3.13-2.45,3.64a1.65,1.65,0,0,1-.37,1.2,2.81,2.81,0,0,0-.63,1.88c0,.88.15,1.59.3,1.59s.27.35.28.79a1.67,1.67,0,0,0,.56,1.18,7.67,7.67,0,0,1,1.36,1.17c0,.15.36.25.8.25s.8.1.8.25.43.44.95.65.94.5.94.64a.27.27,0,0,0,.27.26c.15,0,.27.24.27.53s.2.53.42.52.4.29.41.66a6.44,6.44,0,0,0,.44,1.72c.23.58,1,3.87-.28,5.72s-2.58,5.24-2.94,5.25-.67.13-.66.28a10.34,10.34,0,0,1-3.18.59l-1.6,0-.8,0c-.88-.13-1.6-.35-1.6-.49s-.25-.44-.54-.65-1.88-.93-1.89-1.29-1.59-1.59-3.51-2.72l-.06-2.92v-.53a25.85,25.85,0,0,1,3.05-6.45c1.13-1.63,2.06-3,2.5-7.23-.55-.52-.67-.52-.81-.51a.26.26,0,0,0-.26.27c0,.14-.41.27-.93.29s-.92.14-.92.29a.27.27,0,0,1-.26.27.91.91,0,0,0-.53.27v.26c0,1.6.82,1.32.85,2.64l.07,3.19a18.13,18.13,0,0,0-2.87,2.46c0,.15-.71.28-1.59.3s-1.6-.26-1.61-.63-.55-.65-1.21-.64a2.1,2.1,0,0,1-1.75-1.16,17.73,17.73,0,0,1-.37-4.64c.15,0,.25-.55.24-1.21a1.64,1.64,0,0,0-1.36-1.43c-.73-.13-3.92.42-4.5,1.16a12.9,12.9,0,0,0-1.78,3.62c0,.51-.16.93-.38.94s-.57.37-.78.82a10.74,10.74,0,0,0-1.14,2.82c0,.66-1.84,3.39-4.12,6.07ZM339.41,109.1a3.91,3.91,0,0,1-3.81-4.17c0-1.86.19-3.73,3.11-3.79l2.39-.05c1.23,2.6,1.78,6.18,1.24,7.95Zm44.32-3.87h-.53a1.27,1.27,0,0,1-1-1.84c.35-.89,3.61-2,3.68-1.81s1,1,1.09,1.17-.64,1.11-.63,1.48-.94.8-2.11,1Zm7.26,4.1.05,2.39c-2.47.79-4.92.84-5.44.12s-.54-4.28,0-4.66a13.25,13.25,0,0,1,3.71-.61c0,.07,1.47,1.35,1.64,2.23Zm-52.93,61.22c0,.29-.46.72-1,1a6.65,6.65,0,0,1-4.29-1.37l-1.33,0-2.39.05c-2.9,1.08-6.14.79-7.19-.65s-9.12-3.56-9.12-3.92a.61.61,0,0,0-.55-.65c-.29,0-.66-.35-.81-.78s-.48-1.59-.7-1.59-.4-.35-.41-.79a1.43,1.43,0,0,0-.42-1.05,2,2,0,0,1-.69-1,10.25,10.25,0,0,0-1.12-2.5c-.61-1.08-1.84-4.32-2.36-4.6s-.85-1.71-.73-3.18.34-5.06.56-5.06.39-.43.38-.94.1-.94.24-.94,0-.78-.3-1.72a17.06,17.06,0,0,1-.5-4.77,3.76,3.76,0,0,1,1.45-.7,1.07,1.07,0,0,0,.79-.41c.14-.22,1.09-1.91,1.79-3.1s2.45-4.69,3-4.85a8,8,0,0,0,2.47-2.71c.85-1.33,5-2.38,5-2.23s.66.25,1.47.24,1.46-.15,1.46-.3.23-.27.53-.28a1.36,1.36,0,0,0,.91-.55c.22-.3,1.14-1.35,1.44-1.36s.53-.13.53-.28.47-.39,1.05-.55l.8,0,2.92-.06a80.62,80.62,0,0,1,8.71,3.14c2,.91,7.11,3,7.11,3.17a.27.27,0,0,0,.27.26c.15,0,.27.23.28.53a6.25,6.25,0,0,0,1.64,2.09,18.49,18.49,0,0,1,2.74,3.93,1.06,1.06,0,0,0,.42.79c.22.14.94.54,1,.91s.13.66.28.66.27.23.28.53.13.53.28.52.27.42.28.93.14.93.29.93.28.41.29.92.2.93.42.92.55,1.3.73,2.91l.05,2.39.13,5.85a6.55,6.55,0,0,0-1.54,2.82,8.75,8.75,0,0,1-.88,2.81c-.49,1-1.49,4.28-1.63,4.29s-.55.37-.91.82-2.22,1.88-2.21,2.18a3.67,3.67,0,0,1-1.16,1.62,23.07,23.07,0,0,0-2.47,2.31c0,.22-1.07.42-2.39.45a7,7,0,0,0-3,.59c-.36.3-1.28,1.89-1.42,1.9S338.05,170.25,338.06,170.54Zm6.48-51.19c.51,0,.94.28,1,.65s-.29.55-.66.41-1.21-.42-1.21-.64S344,119.37,344.54,119.35Zm14.1,6.61a4.48,4.48,0,0,1,.22-2.13,18.44,18.44,0,0,0,.7-4.26l3.19-.07,3.46-.07c1.52,2.3,2.18,5.7,1.49,7.54s-5.23,4.05-5.23,3.83-.37-.45-.81-.52-1.61-.66-1.62-1a.86.86,0,0,0-.41-.79A4,4,0,0,1,358.64,126Zm178.75-2.22a22.33,22.33,0,0,1,4.07-2.22c0,.14.66-.11,1.45-.57s2.77,3.14,3,3.13.41.83.44,1.85-1,3.55-2.27,5.63l-6.91.15-.8,0c-.73-.13-1.34-.35-1.34-.5s-.24-.32-.54-.39S535.16,125.11,537.4,123.74Zm-174.63,14.9a3.47,3.47,0,0,1,.22-2c.22-.22,2-.89,2-1.11s.35-.41.79-.42,1.3,1.17,1.92,2.62l0,.8.06,2.65C365.56,141.53,362.86,139.52,362.77,138.64Zm154.76,7.06c.26,0,4-.35,4.08,4.17l.09,4.25c-3.66.08-6.77-.16-6.93-.52a1.1,1.1,0,0,0-.94-.64c-.37,0-.69-1.06-.71-2.38s.13-2.4.34-2.4a8.51,8.51,0,0,0,1.95-2.43Zm45,17.65c0-.73.33-1.39.76-1.48s1.71-.08,1.87.36-.14,2.4-1,2.41A1.48,1.48,0,0,1,562.57,163.35Zm-4.66-.43c.37.28.23,2-.32,3.86s-7.53,2.17-9,.59l0-1.59c-.06-2.66,1-4,6.29-4.12l.79,0A8.64,8.64,0,0,1,557.91,162.92ZM309,202.27l.08,4c-2.31,1.22-5.07.86-6.13-.8S299,198.72,299,197.7s3.12-3.7,3.11-3.92.53-.53,1.18-.69,3.08,0,3.46.46a11.32,11.32,0,0,1,1,3.57c-.14.08-.12.93,0,.93s.27.29.28.66.13.66.28.66.41.83.57,1.85Zm18.48-6-.07-3.19c2.19-.19,4,0,4.13.31s.54,1.18.69,1.18.28.83.3,1.86-.32,1.93-.75,2a4.17,4.17,0,0,0-1.58.7c0,.15-.35.21-.8.15a3.53,3.53,0,0,1-1.91-2.22Zm226,13.12a6.59,6.59,0,0,1,1-3.88c.57-.6,6.16-.5,8.52.62l.07,3.19.08,3.72a39,39,0,0,1-6.07,1.73.84.84,0,0,0-.42-.52c-.22-.14-2-.73-2-1a1,1,0,0,0-.55-.79C553.75,212.32,553.48,210.95,553.45,209.41ZM578.3,215a2.3,2.3,0,0,1,1.73,0c.66.21,2.29,1.46,2.31,2.48a2.13,2.13,0,0,1-1.15,2.15,9.29,9.29,0,0,1-3.59-.19C577.29,219.11,578,215.22,578.3,215ZM328.47,231.9h-.27c-.59-.28-1.07-.45-1.07-.37s-.06.08-.13,0a.19.19,0,0,1,0-.27c.07-.07.06-.4,0-.39h0a1.09,1.09,0,0,0,.38-.55c0-.14.77-.28,1.73-.3s1.38.81,1,1.84ZM329.59,272c.1,4.79-2,5.62-4.13,5.67h-.53a8.84,8.84,0,0,0-1.64-2.09,5.54,5.54,0,0,1-.32-2.38c0-1.31-.23-2.39-.46-2.38a9.73,9.73,0,0,0-2.21,2.18l-1.06,0h-.53a34.22,34.22,0,0,0-4-1.11c0,.07-.25-.7-.57-1.72l0-1.07c0-1.33-1.21-6.62,4.11-6.73h.53c.44.14.8.37.8.52a9.23,9.23,0,0,0,1.37,1.83c.75.86,2.74,5,3,5a1.07,1.07,0,0,0,.79-.42,3,3,0,0,1,1.71-1,2.92,2.92,0,0,1,1.74.49,2.57,2.57,0,0,1,.55,1.32c0,.29.14.53.28.52s.39.47.55,1.06Zm201.65,5.53,0-.8a7.23,7.23,0,0,0,.77-1.61c0-.14.53-.28,1.19-.29s1.2.09,1.2.24.42.26.94.25a1.65,1.65,0,0,1,1.2.38c.16.22.59.92.95.91a1.09,1.09,0,0,1,.94.51c.16.29.4.53.55.52s.27.29.28.66a.86.86,0,0,0,.41.79,4,4,0,0,1,1,2.5,4.49,4.49,0,0,0,.31,2.12c.14,0,.22.35.15.79s.94,1.1,2.54.48l1.33,0,2.66-.06c1.24,3.19,2.07,5.81,1.85,5.81s-.39.55-.37,1.21-.1,1.2-.24,1.2-.26.25-.26.54-.11.54-.25.54a4.88,4.88,0,0,0-1.3,1.22c-.57.67-4.17,1.43-4.77.63a12.64,12.64,0,0,1-1.84-5c.05-1.25-.4-4.14-1.28-3.83h-.53l-1.32,0a22.2,22.2,0,0,0-3-2.33c-.15,0-.27-.23-.28-.52s-.13-.53-.27-.53-.28-.29-.28-.66a1.1,1.1,0,0,0-.68-.91,1,1,0,0,1-.68-.78c0-.29-.13-.53-.28-.53a7.35,7.35,0,0,1-.59-2.65ZM503.3,282.4c.08.44,0,.8-.12.8s-.37.25-.52.54a4.06,4.06,0,0,1-2.92.06c-.45-.43-.9-3.55-.62-3.71a4.09,4.09,0,0,1,2.13.09C501.41,280.4,503.21,282,503.3,282.4ZM517,294.87a5,5,0,0,1-.86,3.21c-.5.45-3.73.72-4.25.22s-.74-5-.38-5.18,1.18-.68,1.18-.82.23-.39.52-.54h.53l1.33,0A3.66,3.66,0,0,1,517,294.87Zm31.76,18.33c.1-2.12.65-4.28,1.22-4.81s5.34,0,7.34,1.17,3.95,8.56,4.17,8.55.42.77.44,1.72a2.91,2.91,0,0,1-.62,2.13,4.71,4.71,0,0,0-1.17,1.23c0,.15-.29.27-.66.28s-.66.13-.66.28-.35.39-.79.55h-.53l-1.86,0c-1.92-.69-3.49-1.55-3.5-1.91a.61.61,0,0,0-.54-.65c-.29,0-.79-.71-1.1-1.57a15.53,15.53,0,0,0-1.66-3.16A13.8,13.8,0,0,1,548.76,313.2Zm-56.67-1.85c0-.14.53-.28,1.19-.29s1.2.21,1.21.5-.35.54-.78.55A3.22,3.22,0,0,1,492.09,311.35ZM484.63,323c0,.15-.3.27-.67.28s-.66.13-.65.28-.36.15-.8,0a7.9,7.9,0,0,0-1.87-.23,4.87,4.87,0,0,1-2.3-1.68c-.82-.93-1.82-4.5-1.83-5s3.67-2.46,3.67-2.6.35-.39.79-.55h.53c4.52-.1,4.83,2.29,4.9,5.48l0,1.86A12.23,12.23,0,0,0,484.63,323Zm-78.71-6.43c-.07-.07-.13.05-.13.27s0,.34,0,.26-.25-1.19.11-1.19S406,316.59,405.92,316.52Zm-36.37,14.87c-.69-1.08-.74-6.53-.13-12.09l6.91-.15h.53a10.51,10.51,0,0,0,2.54.48c.51,0,.93.1.94.25s.25.26.54.25.53.11.54.25.43.25.94.25.93.1.93.25a3.13,3.13,0,0,0,.69,1,10.49,10.49,0,0,1,1.83,4.62,8.77,8.77,0,0,1-.21,3.06c-.14,0-.26.24-.25.54a.48.48,0,0,1-.39.54c-.22,0-.39.31-.38.68s-.11.67-.25.67a4.85,4.85,0,0,0-1.3,1.22,29,29,0,0,0-2.33,2.71c0,.22-1.25.42-2.78.46s-2.8-.12-2.8-.33-.43-.45-.94-.51S370.23,332.47,369.55,331.39Zm52.54-4.71c.09.88,0,1.59-.1,1.6s-.26.36-.25.8a3.45,3.45,0,0,1-1.15,1.88c-.65.6-3.07,1.59-4.1.89s-3.9-5.83-3.39-9.5l4.25-.09,1.33,0C420.29,322.93,422,325.8,422.09,326.68Zm-62.66,10.11c-.87.31-1.58.69-1.58.83a5.67,5.67,0,0,1-2.39-.09c-1.33-.19-2.61-4.33-2.75-4.33s-.28-.65-.3-1.46a5.58,5.58,0,0,1,1.13-2.95c.64-.82,3-2.85,4.06-2.88a6.56,6.56,0,0,1,3.07.73c.67.42,1.15,5.83.92,5.84s-.28.24-.12.53.39,1.32.16,1.32S360.29,336.48,359.43,336.79Zm147.31,13.47a4.85,4.85,0,0,1-.48,2.4c-.28.37-3.89.45-4.12.09s-.87-1.18-1.09-1.17-.4-.23-.41-.53a1.36,1.36,0,0,0-.55-.92,3.89,3.89,0,0,1-1.1-1.84c0-.51-.2-.92-.42-.92a.48.48,0,0,1-.41-.52c0-.29-.13-.53-.28-.53s-.34-.71-.43-1.58-.42-3.6-.36-4.12,4.46-.79,4.91-.5a6,6,0,0,1,1.64,1.83,1.37,1.37,0,0,0,.55.92,1.68,1.68,0,0,1,.55,1.19c0,.44.14.8.28.79s.28.29.28.66.19.66.42.66.41.53.42,1.19.15,1.19.29,1.19S506.72,349.31,506.74,350.26Zm-69,31.39-5.31.12a79.8,79.8,0,0,1-2.31-8.72c.15,0,.25-.72.24-1.6s.14-1.59.36-1.6.86-.8,1.42-1.76,2.33-3.23,2.33-3.37.7-.52,1.57-.83l1.06,0,2.93-.06a84.07,84.07,0,0,0,4.42,7.62.26.26,0,0,1,.27.26.27.27,0,0,1-.25.27c-.15,0-.26.42-.25.94s-.1.93-.25.93-.26.43-.25.94-.16,1-.37,1.07a2.08,2.08,0,0,0-.9,1.35c0,.51-.22,1-.51,1.07s-1.05.54-1,.69a18.2,18.2,0,0,1-1.8,2.7ZM600,384.83l-.8,0a60.21,60.21,0,0,1-6.21-4.39c-1.34-1.14-3-9.24-2.86-9.24s.26-.37.25-.8.1-.8.25-.8a20.2,20.2,0,0,0,2.63-1.38l1.86,0,2.92-.06a29.8,29.8,0,0,1,3.83,4.7,1.34,1.34,0,0,0,.68.92,1.32,1.32,0,0,1,.68.92c0,.29.13.53.27.52s.28.42.29.93.2,1,.42,1.05a1.91,1.91,0,0,1,.69,1.31c0,.51.2.93.42.92s-.38,2.4-1.35,5.35Zm-260.63-3.47c-.15,0-.28-.53-.29-1.18s.22-1.08.51-.94a4.53,4.53,0,0,1,1.36,1l-.79.55ZM560.56,429.8h0c0-.15-.42-.26-.94-.25s-.94-.1-.94-.25-.25-.38-.54-.52-1.35-.74-1.35-1a.53.53,0,0,0-.54-.52c-.29,0-1.09-1.17-1.79-2.62s-1.44-5.82-1.59-5.82-.27-.23-.28-.53-.19-.53-.41-.52-.19-1.19.08-2.66,2.21-3.5,3.38-3.52a7.65,7.65,0,0,1,4,1.37c1,.78,3.75,5.27,4,7.09a11.2,11.2,0,0,0,.73,3.31c.15,0,.29.83.31,1.85s-.08,1.86-.23,1.87-.37.37-.51.81-1,1.62-1.7,1.63S560.55,429.65,560.56,429.8Z" style="fill: #00a79a;opacity: 0.8"/>
        <path d="M457.07,198.26a21.46,21.46,0,0,0-4.21-8.31,22.78,22.78,0,0,0-6.66-5.5,28.31,28.31,0,0,0-7.32-2.76l-.57-.12q1.62-6.73,3.18-13.69a72.64,72.64,0,0,0,9.26-4.4,47.24,47.24,0,0,0,5.3-3.63l1.21-1.06,1.23-1c.81-.69,1.7-1.43,2.48-2.16l1.08-1.05.59-.59.56-.6c.71-.83,1.4-1.68,2-2.56a40.69,40.69,0,0,0,3.4-5.54,48.11,48.11,0,0,0,4.19-12.07A57.15,57.15,0,0,0,474,120.63a50.24,50.24,0,0,0-1.62-12.41,26.22,26.22,0,0,0-2.29-6A11.34,11.34,0,0,0,468,99.51a7.27,7.27,0,0,0-.73-.6,5.52,5.52,0,0,0-.92-.53l-.22-.09H466a2.74,2.74,0,0,0-.3,0l-.23-.06a6.77,6.77,0,0,0-.93-.24,5.81,5.81,0,0,0-3.67.9,10.09,10.09,0,0,0-2.48,2.33,28.69,28.69,0,0,0-3.17,5.39,113,113,0,0,0-4.34,11.22c-.64,1.88-1.25,3.76-1.84,5.64s-1.19,3.75-1.77,5.62l-3.41,11.15-3.31,11q-1.56,5.19-3.12,10.29l-.58.21c-3.68,1.27-7.5,2.43-11.34,3.86a66.26,66.26,0,0,0-11.3,5.3,52,52,0,0,0-9.93,7.73l-1.08,1.12-.54.56-.13.14-.18.19-.24.27c-.17.19-.3.33-.5.57l-.56.67c-.34.44-.68.87-1,1.32a30.44,30.44,0,0,0-3.29,5.76,28.76,28.76,0,0,0-2.35,12.93,30.46,30.46,0,0,0,3.32,12.38,33.3,33.3,0,0,0,7.64,9.79,35.64,35.64,0,0,0,10.23,6.24c.47.19.93.36,1.4.53-1.62,5.64-3.14,11.09-4.65,16.2-.78,2.63-1.48,5.2-2.25,7.71L409,258.7c-.09.31-.18.61-.27.91l-.25.8c-.18.53-.37,1-.58,1.53a12.3,12.3,0,0,1-3.35,4.73,7.44,7.44,0,0,1-4.71,1.7,10.76,10.76,0,0,1-4.93-1.24,12.21,12.21,0,0,1-3.82-3,9.68,9.68,0,0,1-.67-.9l-.15-.22-.16-.27-.23-.44a7.53,7.53,0,0,1-.58-1.95,8.79,8.79,0,0,1,.29-3.83c0-.15.09-.28.15-.43a6.15,6.15,0,0,0,11.93.89c.95-3-1.41-6.39-3.48-7.24s-4.64-1-6.37.08a11.16,11.16,0,0,0-4.53,5.46,13.57,13.57,0,0,0-.7,5.33,9.62,9.62,0,0,0,.57,2.78l.29.71.13.29.17.35a13.79,13.79,0,0,0,.76,1.29,15.7,15.7,0,0,0,4.48,4.38,14.4,14.4,0,0,0,6.67,2.32,12.09,12.09,0,0,0,7.79-2.06,16.63,16.63,0,0,0,5.38-6.41c.32-.62.6-1.25.87-1.9l.2-.48.15-.25.13-.2.33-.89c.44-1.19.83-2.42,1.28-3.65.92-2.44,1.76-5,2.66-7.67,1.82-5.23,3.53-10.73,5.39-16.46l.22,0,1.44.17,1.45.1a29.64,29.64,0,0,0,11.4-1.59,29.24,29.24,0,0,0,9.55-5.65,30.51,30.51,0,0,0,6.57-8.25A26.9,26.9,0,0,0,457.07,198.26Zm-38.19,24.23a26,26,0,0,1-13.24-12,22.49,22.49,0,0,1-2.42-8.81,21,21,0,0,1,1.51-9.09,22,22,0,0,1,2.28-4.19c.22-.34.47-.66.71-1l.35-.44c.1-.13.29-.35.44-.52l.23-.27.18-.2.45-.49.9-1a45.54,45.54,0,0,1,8.21-6.73,47.73,47.73,0,0,1,4.73-2.67c1.64-.83,3.35-1.57,5.11-2.29,2.06-.84,4.2-1.62,6.38-2.41q-1.61,5.28-3.18,10.45a20.18,20.18,0,0,0-6.45,1.29,19.66,19.66,0,0,0-11.16,11.26,12.73,12.73,0,0,0-.7,7.41,6.87,6.87,0,0,0,1.2,2.5,6.44,6.44,0,0,0,3,2.09,3.82,3.82,0,1,0-2.48-4.8,3.7,3.7,0,0,0-.11.47,5.69,5.69,0,0,1-.1-.57,11.17,11.17,0,0,1,1.3-6.2,17.33,17.33,0,0,1,5.71-6.49,16.14,16.14,0,0,1,8.5-2.75q-1.2,4-2.36,7.91L425,202.87c-.94,3.24-1.85,6.43-2.73,9.57l-2.91,10.24Zm26-70.14c.78-3.71,1.62-7.43,2.47-11.18s1.76-7.51,2.74-11.28,2-7.53,3.22-11.26c.58-1.87,1.23-3.72,1.9-5.56s1.41-3.66,2.25-5.4a24.85,24.85,0,0,1,2.91-4.87,7.61,7.61,0,0,1,1.87-1.73,3.09,3.09,0,0,1,2-.49,4.43,4.43,0,0,1,.53.11l.14,0,.08,0,.18.07.12.06c.07,0,.22.14.37.25a4.94,4.94,0,0,1,.42.37,8.76,8.76,0,0,1,1.45,2.13,23.29,23.29,0,0,1,1.82,5.34,49.56,49.56,0,0,1-1.05,23.09,43,43,0,0,1-4.51,10.49,34.92,34.92,0,0,1-3.27,4.55c-.59.71-1.23,1.39-1.88,2l-.49.49-.49.46-1.11,1c-.36.32-.7.59-1,.88s-.69.58-1.07.86l-1.12.85-1.15.8a49.7,49.7,0,0,1-4.81,2.86c-1.29.68-2.63,1.29-4,1.87Q444.16,155.8,444.9,152.34ZM448,214a22.1,22.1,0,0,1-12.29,9.81,22.38,22.38,0,0,1-8.27.87l-1.07-.1h0c1-3.27,2-6.6,3-10,1.88-6.28,3.73-12.79,5.52-19.52.78-2.88,1.53-5.82,2.27-8.79l.44.13a25,25,0,0,1,5.85,2.72,17.17,17.17,0,0,1,4.73,4.5,16.38,16.38,0,0,1,2.64,6.18A20.16,20.16,0,0,1,448,214Z" style="fill: #fff"/>
        <path d="M159.55,34.22a6,6,0,0,0,.14-2.48,2.3,2.3,0,0,1,.16-1.53,12,12,0,0,0,.78-2.18c-.07-.14.49-.58,1.25-1a3.88,3.88,0,0,1,2.8-.18c.77.3,3.55,4.88,3.41,5s-.07.47.15.89a1.53,1.53,0,0,1,.15,1.2c-.13.25-.5,1.19-.35,1.47s.16.56,0,.64-.1.42.08.76a.93.93,0,0,1,0,1,1.57,1.57,0,0,0-.17,1.21,6,6,0,0,1-.52,2.68c-.43,1.2-2.14,4.5-2.76,4.83s-2.35-.07-3.84-.88l-.79-1.51-.26-.5c-.08-.49,0-.94.11-1s0-.53-.21-1-.29-1-.08-1.08a.52.52,0,0,0,.12-.7c-.15-.28-.16-.56,0-.63S159.33,35.31,159.55,34.22ZM55.07,103.79c-.82,1-1.67,1.7-1.88,1.63a10.88,10.88,0,0,1-1.79-.34,1.46,1.46,0,0,0-1-.3,3.9,3.9,0,0,1-1.86-.79c-.14-.28-.38-.44-.52-.37s-.61-.55-1-1.38-1-1.43-1.17-1.32-.79-.59-1.3-1.56,1.34-4.87,2.64-4.76,5-.2,5.22.15,1.13.64,2.11.65S55.89,102.82,55.07,103.79Zm117.17-68a1.84,1.84,0,0,1,.09-2c.41-.57,3.53-1.85,3.85-1.22a3.75,3.75,0,0,1,.18,2.48C176.14,35.76,172.61,36.26,172.25,35.74ZM79.8,94c-.76.4-1.44.62-1.52.48a1,1,0,0,0-.77-.23c-.35,0-1.48.24-1.59,0s-.59-.17-1.08.08-.94.35-1,.21a.54.54,0,0,0-.45-.24c-.18,0-1.1-.27-1.29-.61a1.19,1.19,0,0,0-1.1-.55,1.52,1.52,0,0,1-1.15-.36,9.66,9.66,0,0,1-1.62-4.61l1-.53L71,86.73a23.38,23.38,0,0,0,3.83.56c.14-.07.37.09.52.37A.51.51,0,0,0,76,88c.21-.11.82.22,1.35.74a15.78,15.78,0,0,0,2.14,1.93c.14-.07.37.09.51.37a.52.52,0,0,0,.64.3c.2-.11.41.14.46.56A3,3,0,0,1,79.8,94ZM37.56,118.45c.14-.08.32.13.39.44s-.11,1.67-.59,1.92a2,2,0,0,1-1.53.16c-.35-.17-1.76-2.36-1.51-2.58s1.88-1,2.28-.56S37.42,118.53,37.56,118.45Zm81.16-34.8a4.46,4.46,0,0,0-1.73-.54c-.14.07-.73-.78-1.3-1.88a5.54,5.54,0,0,1-.82-2.78c.13-.42,3.79-1.69,4.75-1.05s3.79,2,4.26,2.91.64,1.9.37,2.22S119.52,84,118.71,83.65Zm49.2-26.52a6.64,6.64,0,0,1,0-2.73c.19-1.16,1.31-4.55,1.94-4.87a3,3,0,0,1,1.9-.36c.42.13,2.1,3.33,2.12,4a20.21,20.21,0,0,1-.56,3.83,8.17,8.17,0,0,0-.39,2.62c-.08,1.37-3,4-3.36,3.69a6.22,6.22,0,0,1-1.12-2.14c.14-.07,0-.53-.21-1s-.35-.94-.21-1,.13-.36,0-.64-.15-.57,0-.64S168.09,57.49,167.91,57.14ZM165.64,55c.14-.25.45-.06.71.43s.24,1,0,1.14S165.5,55.21,165.64,55ZM6.79,150.7c-.21.11-.32.31-.25.45s-.38.52-1,.85a6.49,6.49,0,0,1-2.4.62c-.7,0-3.27-3.71-3.14-4.13s3.06-2.07,3.59-1.73,2,1.06,2.06,1.48.26,1.31.47,1.2S7,150.59,6.79,150.7Zm53.59-29.78c.65,1.25.86,2.73.45,3.3s-3.73,2.28-4.48,1.87a9.4,9.4,0,0,1-3.22-4.89l3.28-1.72,1-.53C58.39,118.78,59.73,119.67,60.38,120.92ZM174,60.83l1.51-.79a9.53,9.53,0,0,1,3.76,3.48,6.11,6.11,0,0,1,.94,2.4,6.32,6.32,0,0,0-.4,2.3c-.08,1.19-3.87,3.11-4.72,2.32s-3.23-6.81-2.85-8.78Zm4.81,266.44-1.26.66a54,54,0,0,0-7.28-1.32c-.2.11-.73,0-1.15-.36a17.2,17.2,0,0,1-2.19-1.42.52.52,0,0,0-.64-.31c-.21.11-.53-.08-.71-.43s-.44-.57-.58-.49-.43-.21-.65-.62a5.25,5.25,0,0,0-2.76-1.28c-1.3-.29-4.37-4.76-4.57-5.63s4.49-4,4.56-3.84.76-.08,1.52-.48,1.21-1.06,1-1.48a3.49,3.49,0,0,0-1.55-1.11c-.14.07-.4-.15-.58-.5s-.45-.57-.59-.5a10.41,10.41,0,0,1-1.46-3.09c-.67-1.77-2.86-6.42-3.25-6.49a8.75,8.75,0,0,1-1.72-.21c-.07-.14-.47-.07-.89.15s-.84.22-1,0a1.17,1.17,0,0,0-.58-.5.74.74,0,0,0-.64,0l-.12.06-.25.13c-.07,0-1-.11-1.14,0s-.73-.77-1.31-1.88-1.23-1.92-1.44-1.82a8.56,8.56,0,0,1-2.09.3,23.17,23.17,0,0,1-4.14-.23c-.07-.14-.36-.14-.63,0a1.41,1.41,0,0,1-1.21-.16,3.91,3.91,0,0,0-2-.41,2.81,2.81,0,0,1-1.79-.35,7.49,7.49,0,0,0-3.06-.63,4.88,4.88,0,0,1-2.62-.39c-1.09-.4-4.69-.4-5.33.55s-.76,4.43-1.11,4.61a2.54,2.54,0,0,0-.94,1,2.8,2.8,0,0,0,.29,1.77c.26.48.12,2.29-.3,4s.57,7.9.36,8a1,1,0,0,0-.43.71c0,.28-.34.58-.37.52s-.09,0-.12.06-.34.88-.23,1.09-.09.53-.43.71-.6.53-.56.77a1.69,1.69,0,0,1-.68,1.15c-.35.19-.57.45-.5.59s-.37.52-1,.85a16.67,16.67,0,0,1-4.95.67l-1.59-3-.4-.75a24.26,24.26,0,0,0-1.27-3c-.4-.76-.5-1.65-.23-2s0-1.6-.69-2.85a5.31,5.31,0,0,0-2.27-2.5c-.6-.13-2.32-.74-2.57-1.22a4.9,4.9,0,0,0-1.63-1.56,11.11,11.11,0,0,1-2.23-3.32c.14-.07.13-.36,0-.64a28.24,28.24,0,0,1,.77-5.87l5.29-2.78.5-.26c.63-.16,1.2-.16,1.27,0s.36.13.64,0a.51.51,0,0,1,.7.11c.11.21.6.17,1.09-.08a2.11,2.11,0,0,1,2,.52l1.26-.66,2-1.06c.8-1.83,1.89-3.49,2.41-3.68s.79-1.86.46-2.49-3.39-3.42-6.81-6.23L110,271.55l-.79-1.51a8.35,8.35,0,0,1-.57-2.91c.14-.07,0-.24-.2-.38s-.47-.56-.33-.63a8.34,8.34,0,0,0-1-2.84c-.7-1.49-2.58-5.55-2.72-5.48s-.5-.46-.79-1.19-1.28-2.93-1.52-2.89a2,2,0,0,1-1.3-.93c-.26-.48-.63-.79-.84-.68a17.49,17.49,0,0,1-4.09-.74c-2-.51-7.4-3.68-7.66-4.17s-.66-.84-.91-.81-1.36-1.07-2-2.31a6.47,6.47,0,0,1-.6-4.18c.33-1.06,4.1-4,5-3.92s3.33-.68,3.36-1a4.91,4.91,0,0,0-1-1.89,8.58,8.58,0,0,1-1.46-2.77c-.67-1.59-2.63-6-2.42-6.12a.52.52,0,0,0,.11-.71c-.14-.28-.15-.56,0-.63s0-.64-.34-1.27-.48-1.19-.34-1.26,0-.82-.23-1.65-1-2.86-.76-3-.22-1.48-.95-3a52.06,52.06,0,0,1-2.42-6.12c.14-.07.13-.36,0-.64s-.15-.56,0-.64,0-.64-.34-1.26-.43-1.22-.22-1.33,0-1-.55-2a4.53,4.53,0,0,1-.2-3.43l-.4-.75-.8-1.51a13.67,13.67,0,0,1-3.84-4.25c-.76-1.45-1.56-2.56-1.77-2.45s-.65-.31-1-.93-.7-1.07-.84-1-.43-.21-.65-.62-.51-.69-.65-.63-.61-.26-1-.74l-.4-.75-1.06-2c-.4-2.44.88-4.55,2.83-4.7s6.43,3.69,7.19,3.29a4.57,4.57,0,0,0,1.87-2c.27-.67.34-3.39.69-3.58a.72.72,0,0,0,.3-1,.65.65,0,0,1,.17-.89,3.35,3.35,0,0,0,.92-1.61,16.3,16.3,0,0,0,.55-4.15,1.6,1.6,0,0,1,0-1.27c.16-.35.53-1.44.34-1.79a8.54,8.54,0,0,1-.12-3,12.71,12.71,0,0,0-1.37-4.74c-.14.07-.46-.27-.71-.75A15.41,15.41,0,0,0,79,152.72c-1.46-1.09-4.39-5.24-4.12-5.39a1.53,1.53,0,0,0,.42-1.34c0-.59.34-3.41,1.38-3.78a12.82,12.82,0,0,1,3.94-.46c.07.13.53,0,1-.21s1-.32,1.2-.15,1.13.53,1.47.35.69-.22.76-.08.36.13.64,0,.56-.15.64,0a1,1,0,0,0,.77.24,9.21,9.21,0,0,0,2.33-1.07c.24-.21,1.86-4.35,2.14-4.5a1.14,1.14,0,0,0,.56-.77,2.23,2.23,0,0,1,1.05-1.36c.62-.33,1-.76.93-1s.09-.52.43-.71.57-.44.5-.58.27-.46.75-.72.82-.58.75-.71.38-.66,1-1.16,2.55-1.88,2.44-2.09-.09-.43.05-.51.07-.47-.15-.89-.51-.7-.65-.62-.4-.15-.58-.5a6.4,6.4,0,0,0-1.95-1.54A12.52,12.52,0,0,1,94,120.61a34.8,34.8,0,0,0,.13-5.86l4-2.12,1.51-.8c3.44,4.2,6.72,7.25,7.26,6.78s2.17-1.67,2.06-1.88,1.87-1.54,4.39-3,9.3-5.23,9.37-5.09.76.07,1.53-.16a16.39,16.39,0,0,1,3.16-.7c.07.14.64,0,1.27-.35a16.42,16.42,0,0,1,3.79-1l.76-.4c1.26-.66,3-1,1-4.73-1.86-3.53-4.61-7.55-6.33-10.82l-.53-1c.74-1.27,1.41-2.2,1.48-2.06s1,1.29,2.15,2.56,3.85,5.53,4,5.45.64.6,1.12,1.5,1.17,1.69,1.56,1.75A2.47,2.47,0,0,1,139,100l.53,1a7.51,7.51,0,0,1,.53.69c.32.45,2.38-.13,2.72-.31a3.08,3.08,0,0,1,1.72-.1,19,19,0,0,1,3.19.57,1.17,1.17,0,0,0,1.21.17.91.91,0,0,1,1,0,2.07,2.07,0,0,0,1.59,0c.49-.25.95-.35,1-.21s.36.14.64,0a.51.51,0,0,1,.7.11c.11.21.49.23.83,0a7.84,7.84,0,0,1,3.12.13c1.37.25,6.21-1.64,6.13-1.78s.09-.37.37-.51a.51.51,0,0,0,.31-.64c-.11-.21.2-.59.68-.84s.82-.58.75-.72.15-.4.5-.58.57-.44.5-.58a14.75,14.75,0,0,1,1.21-3.21c.74-1.63,2-6.21,2.16-6.28s.13-.36,0-.63-.15-.56,0-.64,0-.56-.4-1.07-1.19-1.62-1.05-1.69,0-.53-.21-1a1.82,1.82,0,0,1,0-1.59,3.87,3.87,0,0,0,.41-2,2.33,2.33,0,0,1,.16-1.53,12.42,12.42,0,0,0,.79-2.18c-.08-.14.26-.46.75-.71a3.38,3.38,0,0,1,2-.23c.59.12,2.42,3.06,2.29,3.13s.13.87.61,1.77a9.48,9.48,0,0,1,.9,3.54l-1,.53-.25.13a1.22,1.22,0,0,0-.82.27,1.76,1.76,0,0,0,0,1.15,1.15,1.15,0,0,1,0,1,3.18,3.18,0,0,0,0,2.1c.33.62.48,1.19.35,1.27a28,28,0,0,0-1.76,4c-.83,2.11,2,10.37,2.31,10.19s2.34,1,2.69.84,2,.19,3.64.82,6.47,3.18,6.61,3.11.37.09.51.37a1.43,1.43,0,0,0,1.09.55,3.86,3.86,0,0,1,2.06,1.17,12.46,12.46,0,0,0,1.57,2.07c.61.65,4.5.9,4.61,1.11a.71.71,0,0,0,.77.24c.31-.08,1.33.08,1.47.35a6.2,6.2,0,0,0,2,1.36c1,.47,4.53,1,5.92.26l2.52-1.33a1.33,1.33,0,0,1,1,1.06,4.34,4.34,0,0,1,.17,1.84c-.14.07,0,.64.35,1.26a2.34,2.34,0,0,1,.35,1.59,5,5,0,0,0,.83,3.1c.79,1.17,4.52,3.71,5,4.6s1,1.58,1.11,1.5.73.77,1.31,1.88,1.23,1.92,1.43,1.81,1.12,1.22,2,2.95a11.27,11.27,0,0,0,1.91,3c.14-.07.64.6,1.11,1.5s1,1.58,1.11,1.51.73.91,1.32,2.2,4.22,2.21,4.18,2.14.75-1.63.53-2a4.39,4.39,0,0,1,0-2.42c.23-.91,4.34-3.44,4.83-3.34s2.58,2.82,2.85,2.67.68.22.91.81.22,2.31-.33,2.42-2.06.66-2,.87-.09.52-.43.71-.57.44-.5.59-.2.43-.62.64-.7.51-.62.65-.15.4-.5.58-.57.45-.5.58a26.37,26.37,0,0,1,.39,3.17c.14,1.61,1.34,5.88,1.2,6s-.13.36,0,.63a.51.51,0,0,1-.12.7c-.21.11-.17.6.09,1.09a1.78,1.78,0,0,1,.22,1.33,1.86,1.86,0,0,0,0,1.46,1.77,1.77,0,0,1,.22,1.33c-.13.25-.6,1-.42,1.34s.22.69.08.76a13.22,13.22,0,0,0,1.54,3.53,13.32,13.32,0,0,1,1.54,3.53c-.14.07,0,.64.34,1.26s.48,1.2.34,1.27-.13.36,0,.63a.52.52,0,0,1-.12.7c-.21.11-.17.6.09,1.08s.35.94.21,1,0,.53.21,1,.35.94.21,1a1,1,0,0,0-.24.77c0,.35,1.12,1.23,1.66.42a24.84,24.84,0,0,1,3.11-3.57,1.54,1.54,0,0,0,.81-.9c0-.28.38-1.32.79-1.54a1.54,1.54,0,0,0,.81-.91,30.12,30.12,0,0,1,3.27-4.78c1.71-2.13,3.67-7.57,4.29-7.72s1.84-.79,1.76-.93.6-.78,1.5-1.43,1.57-1.29,1.5-1.43,0-.48.24-.77l.25-.14,1-.52c1.19.25,2.11.35,2,.21a5.87,5.87,0,0,1-.22-1.33c0-.59,2.18-2.56,2.5-2.28a17.26,17.26,0,0,1,2.94,3.75l-2.27,1.19-.25.13c-.91.3-1.79.26-2-.09s-.66.12-1.06,1-2.4,3.76-3.54,4.27-1.38,3.48-.73,4.72,1,2.36.81,2.47-.68-.37-1-1.06-2.36-.53-3.35,1-4.9,5.35-4.72,5.69a.66.66,0,0,1-.17.9,2.3,2.3,0,0,0-.74,1.34,2.28,2.28,0,0,1-.73,1.35,10,10,0,0,0-1.74,1.88c-.68.89-1.46,4.95-1.8,5.13a1.93,1.93,0,0,0-.8,1.23,1.94,1.94,0,0,1-.8,1.22c-.34.18-.57.44-.5.58a44.29,44.29,0,0,1-2.3,5.71c-1.34,3-.54,14.7-.29,16.86s-1.57,8-1.35,8.42.29.81.15.88-.11.42.08.76.22.69.08.76,0,.53.21,1,.29,1,.08,1.08a3.48,3.48,0,0,0-.4,2c0,1,2.5,5.5,3.5,6s3.58,2,3.85,1.83a.51.51,0,0,1,.7.11c.11.21.88,0,1.71-.42a1.78,1.78,0,0,1,2.24.27c.4.59,1,2.69.45,3.61s-4.53,3.15-4.78,2.84-1.09-.87-1.22-.8-.46-.27-.71-.75a.77.77,0,0,0-1.15-.36,4.24,4.24,0,0,0-1,1.68c.07.14-.26.46-.75.71s-.83.58-.75.71-.78.59-1.89,1-3.74,2.23-4,3.07-.87,3.29-.3,3.69l.27.51.13.25c.09.84.27,1.47.41,1.4a14.42,14.42,0,0,1,3.06.64c1.55.42,6.66,2.92,6.8,2.85s.52.38.85,1,.46,1.28.29,1.46a2.56,2.56,0,0,0-.09,2c.33.62.48,1.19.34,1.27a6.85,6.85,0,0,0-.59,2.24c-.18,1.16-1.25,4.66-1.18,4.8a10.45,10.45,0,0,1-1.85,2.58l-1.51.79-2,1.06a32.48,32.48,0,0,0-4.33-.29c-.14.07-.46-.26-.72-.75s-.88-1.82-1.4-3-5-.49-5.41-.21a8.58,8.58,0,0,0-1.72,2.83,1.23,1.23,0,0,1-.87,1.1,12.05,12.05,0,0,1-1.33.22.29.29,0,0,0-.12.39c.07.14-.49.58-1.25,1s-1.32.84-1.25,1-.77.73-1.88,1.31-6.38.46-11.71-.27L209,278.93l-2.26,1.19c-1.88,3.82-3.53,7-3.67,7.08s.1.67.53,1.33-.86,4.17-.6,4.65a1.77,1.77,0,0,1,.21,1.33,3,3,0,0,0,.3,2.09c.44.83.91,1.45,1,1.38s.43.21.65.62a1.8,1.8,0,0,0,1.1.87,8.2,8.2,0,0,1,1.85.47c.07.14.47.07.89-.15s.81-.28.89-.15.62.22,1.21.17,1.14,0,1.21.17a.29.29,0,0,0,.38.12c.14-.07.37.1.52.37a.52.52,0,0,0,.64.31c.21-.11.53.08.71.43a6.75,6.75,0,0,0,1.24,1.44c.5.44,2.81,3.23,2.47,5.61s0,6.25-.31,6.43-.57.44-.49.58a11.13,11.13,0,0,1-2.76,2.09l-1.51.79-.75.4c-.9.3-1.7.43-1.77.29a1.41,1.41,0,0,0-.83-.36c-.39-.07-2.24,0-2.42-.33s-2.28-.76-4.66-.92l-1.46-2.77-.27-.5a27.75,27.75,0,0,1-.16-7.63c.31-2.1.56-3.82-1.06-8.12-.77-.24-.88-.18-1-.11a.29.29,0,0,0-.12.38c.07.14-.27.46-.75.72s-.82.58-.75.71a.29.29,0,0,1-.12.39,1,1,0,0,0-.37.51l.13.25c.79,1.51,1.42.87,2.08,2.12l1.59,3a19.19,19.19,0,0,0-1.57,3.72c.07.14-.55.61-1.38,1s-1.66.51-1.84.17-.84-.36-1.46,0a2.27,2.27,0,0,1-2.23-.27,19.36,19.36,0,0,1-2.57-4.27c.14-.07,0-.64-.35-1.27a1.75,1.75,0,0,0-2-.72c-.76.22-3.56,2.27-3.75,3.26a13.91,13.91,0,0,0,0,4.32c.25.48.29,1,.09,1.08s-.37.63-.36,1.15a11.6,11.6,0,0,0,.26,3.24c.32.62-.14,4.12-1.05,7.78ZM24.42,154a4.19,4.19,0,0,1-5.64-2.17c-.93-1.76-1.6-3.65,1.17-5.11l2.27-1.19c2.42,1.91,4.65,5.07,5,7ZM65,129.09l-.5.26a1.36,1.36,0,0,1-1.81-1.3c-.09-1,2.49-3.66,2.67-3.49s1.46.5,1.6.6-.08,1.37.1,1.72-.52,1.22-1.55,1.94Zm8.92.45,1.19,2.26c-2,1.93-4.31,3.15-5.16,2.72s-2.56-3.83-2.2-4.47A14.33,14.33,0,0,1,71,127.69c0,.07,2.07.59,2.64,1.35ZM34.23,161.33a.89.89,0,0,1,1.22.16c.18.35,0,.67-.43.71s-1.35.18-1.47,0S33.75,161.59,34.23,161.33Zm16.66-.4c-.59-1.11-.94-2.08-.81-2.15a20,20,0,0,0-1.36-4.42l3-1.59L55,151.05c2.55,1.48,4.81,4.42,5,6.51s-3.07,6.38-3.18,6.17-.57-.26-1-.11-1.86.14-2-.21-.53-.6-.77-.56A4.23,4.23,0,0,1,50.9,160.93ZM221,73.42a24,24,0,0,1,2.84-4.07c.07.14.58-.42,1.12-1.23s4.15,1.68,4.36,1.57.79.6,1.3,1.57.74,3.88.52,6.47l-6.54,3.44-.76.4c-.77.23-1.45.3-1.52.16s-.39-.19-.7-.11S219.49,75.8,221,73.42ZM60.9,171.1a3.7,3.7,0,0,1-.74-2c.1-.31,1.46-1.79,1.36-2s.14-.56.56-.78,1.8.5,3.08,1.59l.4.76,1.32,2.51C64.95,172.53,61.41,171.89,60.9,171.1Zm151.54-67.16c.25-.13,3.65-2.24,5.9,2l2.12,4c-3.46,1.82-6.56,3.08-6.88,2.81a1.18,1.18,0,0,0-1.21-.17c-.34.18-1.17-.69-1.82-1.94s-1-2.35-.82-2.46a9.05,9.05,0,0,0,.7-3.26ZM275.78,71.6a7.56,7.56,0,0,1,2.87-2.48,6,6,0,0,1,2.39-.94c.07.14,1-.34,2-1.06l1-.53.5-.26a1.65,1.65,0,0,1,1.73.85,2.61,2.61,0,0,1-.45,2.49c-.58.74-3,3.16-2.93,3.3s-.66.67-1.63,1.18-1.67,1.1-1.56,1.31.08.44-.05.51-.34,0-.45-.25-.71-.11-1.33.22a4.53,4.53,0,0,1-2.15.49c-.56-.06-1.26-1.59-1.05-1.69S275.44,72.3,275.78,71.6Zm10.36,2.9c.34-.53.68-.85.75-.71s.53,0,1-.21a1,1,0,0,1,1.35.42,1.75,1.75,0,0,1,.21,1.33c-.13.25-.92,1.48-1.62,1.49S285.8,75,286.14,74.5ZM264,99.32c-.36-.69-.35-1.49,0-1.78s1.6-.89,2-.55,1,2.36.19,2.79A1.59,1.59,0,0,1,264,99.32Zm-4.67,1.81c.49.1,1.19,1.83,1.54,3.85s-6.18,5.67-8.36,4.88l-.79-1.51c-1.32-2.51-1-4.31,4.06-7l.75-.4A9.38,9.38,0,0,1,259.33,101.13Zm-204.72,142-1.59-3c2-1.23,3.85-2,4.1-1.68s1.09.88,1.23.8.67.67,1.18,1.64.62,2,.24,2.29-1.25,1.28-1.18,1.42-.24.38-.69.53A3.78,3.78,0,0,1,55,243.92Zm222.66-95.39a7,7,0,0,1-.91-4.18c.26-.84,5.65-3.42,8.45-3.48l1.59,3,1.85,3.53a42.6,42.6,0,0,1-5,4.55.9.9,0,0,0-.64-.3c-.28,0-2.27.26-2.42,0a1.08,1.08,0,0,0-.9-.49C278.95,150.42,278,149.23,277.27,147.78Zm26.46-6.52a2.44,2.44,0,0,1,1.63-.86c.74-.12,2.89.3,3.4,1.27a2.28,2.28,0,0,1-.07,2.61c-.55.47-3.11,1.67-3.53,1.54S303.56,141.6,303.73,141.25ZM72.6,276.76l-.25.14a2.81,2.81,0,0,0-1.21.15c0,.07,0,.1-.12.07a.21.21,0,0,1-.13-.25c0-.1-.13-.41-.2-.37h0a1.14,1.14,0,0,0,.11-.71c-.08-.14.6-.64,1.51-1.12s1.71.11,1.8,1.3Zm20.24,37.89c2.38,4.53.77,6.34-1.25,7.4l-.5.26a9.2,9.2,0,0,0-2.57-1.22c-.14.07-.79-.89-1.44-2.13s-1.36-2.18-1.57-2.07A10.28,10.28,0,0,0,84.43,320l-1,.53-.5.27a35.36,35.36,0,0,0-4.37.86c0,.07-.58-.55-1.37-1.37l-.53-1c-.66-1.26-4.32-5.76.72-8.41l.51-.27c.48-.08.94,0,1,.11a9.7,9.7,0,0,0,2.19,1.1c1.13.47,5,3.47,5.29,3.32a1.13,1.13,0,0,0,.55-.77,3.22,3.22,0,0,1,1.18-1.74,3.08,3.08,0,0,1,1.9-.36,2.73,2.73,0,0,1,1.16,1c.15.28.38.44.52.37s.61.26,1,.75Zm150.21,11.86-.06-.85a7.78,7.78,0,0,0,.73-1.76c0-.15.56-.32,1.26-.37s1.28,0,1.3.19.46.25,1,.21a1.77,1.77,0,0,1,1.31.34c.17.22.67,1,1.06.92a1.2,1.2,0,0,1,1,.5c.18.3.45.54.61.53s.3.3.33.69a.94.94,0,0,0,.49.83,4.21,4.21,0,0,1,1.18,2.62,4.81,4.81,0,0,0,.44,2.25c.16,0,.25.37.2.84s1.07,1.12,2.74.38l1.42-.1,2.84-.2c1.49,3.35,2.51,6.1,2.28,6.11s-.39.6-.34,1.31,0,1.28-.2,1.3-.26.27-.25.59-.08.58-.24.59a5.24,5.24,0,0,0-1.33,1.37c-.58.75-4.38,1.74-5.07.93a13.41,13.41,0,0,1-2.22-5.26c0-1.33-.65-4.4-1.56-4l-.57,0-1.41.1a23.89,23.89,0,0,0-3.3-2.33c-.16,0-.3-.24-.32-.55s-.17-.56-.33-.55-.31-.3-.34-.69a1.18,1.18,0,0,0-.77-.94,1.11,1.11,0,0,1-.77-.8c0-.31-.17-.56-.32-.55a7.79,7.79,0,0,1-.77-2.8Zm21.06-84.89c.29.38.41.75.27.82a1,1,0,0,0-.24.77,4.3,4.3,0,0,1-2.77,1.45c-.63-.2-2.56-3-2.35-3.25a4.39,4.39,0,0,1,2.08-.94C261.35,240.6,263.83,241.24,264.12,241.61Zm19.07,5.4a5.36,5.36,0,0,1,.71,3.49c-.27.67-3.22,2.47-4,2.24s-3.11-4.45-2.84-4.78.81-1.21.74-1.35,0-.48.24-.77l.5-.26,1.26-.66A3.92,3.92,0,0,1,283.18,247Zm-16,27.68c-.07-.14.37-.51,1-.84s1.25-.37,1.4-.1-.07.68-.49.9A3.46,3.46,0,0,1,267.21,274.69Zm-1.61,14.67c.07.14-.15.4-.5.58s-.57.44-.5.58-.27.32-.75.4a8.79,8.79,0,0,0-1.89.67,5.24,5.24,0,0,1-3-.51c-1.23-.5-3.9-3.44-4.15-3.93s2.34-4.1,2.27-4.24.15-.55.49-.9l.5-.27c4.28-2.25,5.72-.11,7.31,2.91l.93,1.77A13.15,13.15,0,0,0,265.6,289.36Zm-78.42,31.44c-.1,0-.11.11,0,.32l.13.25c0-.07-.81-1-.47-1.2S187.28,320.83,187.18,320.79ZM159.45,352.4c-1.17-.71-3.82-5.89-5.9-11.52l6.54-3.44.5-.26a11.2,11.2,0,0,0,2.66-.76c.48-.25.94-.35,1-.21s.36.14.64,0,.56-.15.63,0,.53,0,1-.21.94-.35,1-.21a3.37,3.37,0,0,0,1.16.67,11.25,11.25,0,0,1,4,3.54,9.66,9.66,0,0,1,1.27,3c-.14.07-.13.36,0,.64a.52.52,0,0,1-.11.7c-.21.11-.23.48,0,.83s.22.69.08.76a5.37,5.37,0,0,0-.66,1.79,31.78,31.78,0,0,0-.94,3.71c.11.21-1,1-2.45,1.76s-2.73,1.22-2.84,1-.63-.23-1.15,0S160.62,353.11,159.45,352.4Zm48.06-29.61c.5.8.81,1.5.67,1.58s-.07.47.15.89a3.67,3.67,0,0,1-.21,2.35c-.33.88-2.17,3-3.5,2.81s-6.52-3.72-7.79-7.47l4-2.12,1.26-.66C204,320.07,207,322,207.51,322.79Zm-55.17,39.62c-.69.71-1.19,1.41-1.11,1.55s-1,.61-2.33,1.06-4.57-2.9-4.7-2.83-.58-.49-1-1.25a6,6,0,0,1-.32-3.36c.22-1.09,1.54-4.19,2.51-4.69a7,7,0,0,1,3.29-.77c.85.09,3.88,5,3.67,5.14s-.15.37.13.57,1,1.08.79,1.19S153,361.7,152.34,362.41Zm147.48-57.47a5.21,5.21,0,0,1,.69,2.53c-.1.49-3.51,2.29-3.9,2.05s-1.39-.71-1.6-.6a.52.52,0,0,1-.64-.3,1.46,1.46,0,0,0-1-.62,4.19,4.19,0,0,1-1.93-1.23c-.26-.48-.63-.79-.84-.68a.51.51,0,0,1-.64-.3c-.14-.28-.37-.45-.52-.37s-.66-.52-1.17-1.31-2.11-3.25-2.3-3.77,3.9-2.89,4.46-2.83a6.52,6.52,0,0,1,2.44,1,1.46,1.46,0,0,0,1,.62,1.8,1.8,0,0,1,1.1.87c.22.42.51.7.65.63s.4.15.58.5.5.54.71.43.65.31,1,.93.71,1.07.84,1S299.35,304,299.82,304.94Zm-51.06,63-5,2.65a84.93,84.93,0,0,1-6.38-7.25c.14-.07-.1-.81-.54-1.64s-.63-1.6-.42-1.71a5,5,0,0,0,.53-2.37c.08-1.19.69-4.2.61-4.34s.43-.84,1.11-1.55l1-.53,2.77-1.46a90.26,90.26,0,0,0,7.87,5.18.28.28,0,1,1,.26.5c-.14.07,0,.53.21,1s.35.94.21,1,0,.53.21,1,.32,1,.16,1.21a2.24,2.24,0,0,0-.22,1.73c.26.49.27,1.06,0,1.27s-.75,1-.68,1.16a19.63,19.63,0,0,1-.44,3.44Zm44.14,55.61-.85.06a63.91,63.91,0,0,1-6.86-4.37c-1.49-1.15-3.69-9.72-3.53-9.73s.25-.4.22-.87.07-.86.23-.87a21.46,21.46,0,0,0,2.74-1.62l2-.14,3.11-.22a32,32,0,0,1,4.34,4.83,1.43,1.43,0,0,0,.77.94,1.41,1.41,0,0,1,.78.94c0,.31.17.56.32.55s.31.42.35,1,.27,1,.5,1.11a2,2,0,0,1,.81,1.37c0,.55.26,1,.49,1s-.29,2.59-1.16,5.79Zm-138.47-8.9c-.14.07-.52-.37-.85-1s-.31-1.14,0-1.14a5,5,0,0,1,1.79.34l-.49.9Zm205.69-73.29h0c-.08-.14-.53,0-1,.21s-.94.35-1,.21a1,1,0,0,0-.77-.24c-.35,0-1.64-.06-1.79-.35a.57.57,0,0,0-.76-.24c-.28.15-1.61-.6-3-1.65s-4.16-4.89-4.3-4.81-.37-.09-.52-.37a.51.51,0,0,0-.64-.3c-.21.11-.75-1-1.2-2.58s.45-4.41,1.56-5a8.15,8.15,0,0,1,4.5-.6c1.37.25,6.11,3.25,7.23,4.88a12,12,0,0,0,2.29,2.82c.14-.07.67.66,1.18,1.63s.82,1.82.68,1.89-.19.53-.11,1-.22,2-.84,2.37S360,341.23,360.12,341.37Z" style="fill: #f9a11b;opacity: 0.9"/>
        <path d="M150.69,257.86c34.15,10.6,74.19-9.2,75.68-40.67,1.51-32.13-32.45-24.22-40.48-38.51-8.91-15.86,14.23-36.61-19.56-49.52-26.79-10.23-60.75,10.43-67.42,44.92S116.54,247.26,150.69,257.86Zm53.56-56.7c7.63,5.3,10,10.8,8,13.68s-7.85,2.54-15-3.23c-4.4-3.53-6.9-8.09-5-11S199.61,197.94,204.25,201.17Zm-46.62-66c9.08-.82,17.5,8.35,14.54,17-3.24,6.61-18.89,14.35-22.74,8.69-1.69-4.92-2.36-17.69,3.7-21.08C155.2,138.61,155.25,135.76,157.63,135.19Zm-39.42,29.7c-.51-4.43-.92-7.46,1.71-10.9,3.5-4.58,9.17-8.43,14.9-4,7,6.27,7.21,15.5,2,22.38-3.64,3.57-9.84,3.37-13.95,1.09A14.3,14.3,0,0,1,118.22,164.89Z" style="fill: #fcfdff"/>
        <g>
          <path d="M256.29,174.26a57.43,57.43,0,0,0,.72,6.56c1.8,7.65,6.8,11.94,14.75,12.56,11.85.93,22.7-2.25,32.86-8.19l1.89-1.12a4.66,4.66,0,0,1,1,0q1.13,17,2.27,34.33c18.18-.33,27.92-12.66,36.86-26.27.54.46,1,.68,1.18,1,8.26,14,17,27.73,23,42.89,4.07,10.31,5.74,21.15,2.85,32.15-3.24,12.36-12.73,18.52-26.24,17.71-10.24-.62-19.09-4.24-25.43-12.39-6.18-7.94-11.75-16.36-17.58-24.57-.31-.44-.56-.93-1-1.6-2.39,3.16-4.57,6.28-7,9.18-3.8,4.52-8.06,8.57-13.52,11.09-8.5,3.93-24.35-.39-28-13.36-3.4-12.26-6.36-24.61-6.46-37.36-.08-9.78.36-19.59,1.26-29.33.35-3.74,2.54-7.33,4-10.92C254.16,175.87,255.14,175.35,256.29,174.26ZM306,186.06c-1.46.8-2.47,1.4-3.52,1.91-11.57,5.59-23.48,8.94-36.44,5.64a2.23,2.23,0,0,0-1.95.77c-1.25,2.33-2.68,4.68-3.25,7.21a5.88,5.88,0,0,0,1.44,4.81c2.42,2.2,3,4.48,1.92,7.37-.65,1.71-1.73,3.33-2,5.1a100.74,100.74,0,0,0-1.33,11.32c-.11,1.82,1.09,3,3,3.31.79.14,2.1.81,2.13,1.29.21,3.84,2.84,3.51,5.49,3.61,7.45.27,12.67,3.75,14.65,9.58,1.12,3.31-.59,5.39-4,4.6a10.45,10.45,0,0,1-3.46-2c-1.55-1.13-2.88-2.59-4.51-3.56-2.66-1.58-7.24-1-9.12,1,2.5,2,7.5,1,7.64,6.36-1-.13-1.83-.19-2.6-.33-2.7-.49-3.19,0-3,2.83.32,4.72,3.84,7.32,6.75,10.32a2.34,2.34,0,0,0,1.83.39c2.42-.45,5.16-.46,7.15-1.67,13.37-8.11,22.8-19.55,24.33-35.36,1.12-11.51,0-23.25-.28-34.88C306.84,192.59,306.35,189.53,306,186.06ZM347,193.8c-1.8,2.73-2.94,4.73-4.34,6.54-5.5,7.07-11.37,13.72-20.08,17-4.7,1.78-4.7,1.84-3.26,6.86.88,3.06,1.9,6.18,5.54,6.87,3.3.62,4.44,2.67,5,5.67,1.11,6.14,2.3,12.27,3.71,18.35,1.05,4.52,3,5.42,7.17,3.57,2.06-.92,3.22-.74,3.8,1.67.52,2.13,1.92,2.58,3.62,1.08a26.16,26.16,0,0,0,4.08-4.77c.92-1.34,1.26-3.1,2.23-4.39.81-1.07,2.13-2.26,3.32-2.37.78-.07,2.09,1.56,2.52,2.68a12.31,12.31,0,0,1-5.75,15,27,27,0,0,0-4.11,2.19c-.86.68-1.27,1.92-1.88,2.91,1,.3,2.16,1,3.07.81,2.4-.57,3,.41,2.87,2.52a18.7,18.7,0,0,0-.19,1.91,4.6,4.6,0,0,0,6.54,4.25,17.55,17.55,0,0,0,8.66-7.73,31.5,31.5,0,0,0,4-14.72c.37-11.49-2.7-22.18-8-32.22C359.56,216.47,353.39,205.54,347,193.8Zm-38.27,50.12a17.56,17.56,0,0,0,2.91-.16c2.64-.64,5.29-1.29,7.88-2.14a9.72,9.72,0,0,0,2.41-1.77c-.81-.75-1.5-1.89-2.45-2.19C315.55,236.43,310.37,239.32,308.68,243.92Zm-48.61-35.71c-2.26-1.59-4.19-1.36-6,.11a2.39,2.39,0,0,0-.54,1.66c0,.26.62.78.93.76C256.52,210.59,258.68,210.62,260.08,208.21Z" style="fill: #f7f6f8;stroke: #faf8fa;stroke-miterlimit: 10;stroke-width: 2.04023px;fill-rule: evenodd"/>
          <path d="M277.37,208.71c4-.8,9.53,2.46,10.46,5.32.58,1.81-.37,2.54-1.91,2.31-3.52-.52-7-1.21-10.49-2-.48-.11-1.2-1.45-1-1.71A47.72,47.72,0,0,1,277.37,208.71Z" style="fill: #f7f6f8;stroke: #faf8fa;stroke-miterlimit: 10;stroke-width: 2.04023px;fill-rule: evenodd"/>
          <path d="M293.74,210.5a39.58,39.58,0,0,0-4.49-2.94c-3.24-1.56-6.56-3-9.91-4.32-1.33-.54-3.22-.52-2.9-2.54s2.1-2,3.7-1.7a19.9,19.9,0,0,1,13.49,9,9.61,9.61,0,0,1,.76,1.92Z" style="fill: #f7f6f8;stroke: #faf8fa;stroke-miterlimit: 10;stroke-width: 2.04023px;fill-rule: evenodd"/>
          <path d="M277.43,232.15c3.72,3.23,7.66,6.08,10.83,9.62,1.75,2,2.22,5.05,3.27,7.63l-.9.39a14.77,14.77,0,0,1-1.14-1.73,21.85,21.85,0,0,0-7.2-8.44A11.1,11.1,0,0,1,277.43,232.15Z" style="fill: #f7f6f8;stroke: #faf8fa;stroke-miterlimit: 10;stroke-width: 2.04023px;fill-rule: evenodd"/>
          <path d="M348.3,221.6c.54-.09,1.15-.4,1.61-.24,1.63.55,3.21,1.26,4.81,1.91a28.44,28.44,0,0,1-3.26,3.26,86.35,86.35,0,0,1-7.51,4.92,13.24,13.24,0,0,1-3.45.9c-.18-1.26-.81-2.65-.48-3.76C341.22,224.55,344.16,222.29,348.3,221.6Z" style="fill: #f7f6f8;stroke: #faf8fa;stroke-miterlimit: 10;stroke-width: 2.04023px;fill-rule: evenodd"/>
          <path d="M350.08,210.45c-.57.85-.66,1.12-.78,1.14-4.45.63-6.47,3.71-8.33,7.43-.94,1.89-3.15,3.24-5,4.5-.62.42-2-.2-3-.33a9.36,9.36,0,0,1,.95-2.36c1.95-2.54,4-5,6-7.47,1.65-2.09,3.51-3.86,6.36-3.8A18.77,18.77,0,0,1,350.08,210.45Z" style="fill: #f7f6f8;stroke: #faf8fa;stroke-miterlimit: 10;stroke-width: 2.04023px;fill-rule: evenodd"/>
          <path d="M365.07,248.94c-1.21-.29-2.43-.56-3.64-.89-2.66-.73-5-.88-7.27,1.43-1.88,1.92-3.66,1.43-5.44-.43,2.21-1.25,4.52-2.53,6.78-3.88s4.55-1,6.62.59c1.08.83,2.13,1.7,3.19,2.54Z" style="fill: #f7f6f8;stroke: #faf8fa;stroke-miterlimit: 10;stroke-width: 2.04023px;fill-rule: evenodd"/>
        </g>
        <g>
          <path d="M227.41,110.31l-9.52,24.25a1.72,1.72,0,0,0,.47,2l9.93,6.76a1.21,1.21,0,0,0,1.69-.51L243,121a1.39,1.39,0,0,0-.28-1.85L235.29,114l-11.66,21.14,9.16-22.85.25.17-1.77-1.21-7.92,16.47,6.54-17.4-1-.67C228.36,109.3,227.69,109.59,227.41,110.31Z" style="fill: #fcfdff"/>
          <path d="M167.42,251.9l60.12-104.43a1.79,1.79,0,0,0-.41-2.26l-9.62-6.56a1.27,1.27,0,0,0-1.86.71L163.36,248.7c1.67,1.62-31.12,57.68-29.19,59S165.4,251,167.42,251.9Z" style="fill: #fcfdff"/>
        </g>
        <path d="M133.78,211.33c0,.14-.26.34-.58.45a4.09,4.09,0,0,1-2.36-.63l-.73,0-1.32,0c-1.6.51-3.38.38-4-.29s-5-1.65-5-1.82a.3.3,0,0,0-.3-.31.57.57,0,0,1-.45-.36c-.09-.21-.26-.75-.38-.74s-.22-.16-.23-.37a.62.62,0,0,0-.23-.49,1,1,0,0,1-.38-.49,4.36,4.36,0,0,0-.61-1.17,13.69,13.69,0,0,0-1.29-2.15c-.28-.13-.46-.8-.4-1.49a12.76,12.76,0,0,1,.32-2.37c.12,0,.22-.2.21-.44s.06-.44.14-.44,0-.37-.17-.81a6.83,6.83,0,0,1-.27-2.24,2.26,2.26,0,0,1,.8-.33.63.63,0,0,0,.44-.2c.08-.1.6-.9,1-1.46a13.69,13.69,0,0,1,1.64-2.28,4.13,4.13,0,0,0,1.37-1.28c.47-.63,2.76-1.13,2.76-1.06s.36.12.81.11.81-.07.8-.14.13-.13.29-.13a.79.79,0,0,0,.51-.26c.12-.14.63-.64.79-.64s.29-.06.29-.13.26-.19.58-.26h.44l1.61,0a49.65,49.65,0,0,1,4.8,1.46c1.1.42,3.92,1.41,3.92,1.48a.14.14,0,0,0,.15.12c.08,0,.15.11.15.25a3,3,0,0,0,.9,1,8.75,8.75,0,0,1,1.5,1.84.48.48,0,0,0,.23.37c.12.06.52.25.53.42s.07.31.15.31.15.11.15.25.07.25.15.25.15.2.16.43.08.44.16.43.15.19.16.43.11.43.23.43.3.61.4,1.37l0,1.12.06,2.75a3,3,0,0,0-.85,1.33,3.71,3.71,0,0,1-.49,1.32c-.27.49-.83,2-.91,2a1.35,1.35,0,0,0-.5.39c-.2.21-1.23.89-1.22,1s-.29.48-.64.76a12.29,12.29,0,0,0-1.37,1.09c0,.1-.59.2-1.32.22a4.42,4.42,0,0,0-1.68.28c-.2.14-.71.89-.79.89S133.78,211.2,133.78,211.33Z" style="fill: #f9a11b;opacity: 0.9"/>
        <path d="M137.33,236c-1.17-.71-3.82-5.9-5.9-11.52L138,221l.5-.26a11.25,11.25,0,0,0,2.66-.76c.48-.25.94-.35,1-.21s.36.14.64,0,.56-.15.63,0,.53,0,1-.21.94-.35,1-.21a3.39,3.39,0,0,0,1.16.68,11.24,11.24,0,0,1,4,3.54,9.66,9.66,0,0,1,1.27,3c-.14.07-.13.36,0,.64a.52.52,0,0,1-.11.7c-.21.11-.23.48,0,.83s.22.69.08.76a5.43,5.43,0,0,0-.66,1.79,32,32,0,0,0-.94,3.71c.11.21-1,1-2.45,1.76s-2.73,1.22-2.84,1-.62-.23-1.15,0S138.5,236.67,137.33,236Z" style="fill: #f9a11b;opacity: 0.9"/>
      </g>
    </g>
  </g>
</svg>
